Chapter 3 데이터 입력 | R과 통계분석
…
> iris.url <- "https://archive.ics.uci.edu/ml/machine-learning-databases/iris/iris.data"
> read_csv(iris.url,
+          col_names=c("S.length","S.width","P.length","P.width","Species"))

Rows: 150 Columns: 5

-- Column specification --------------------------------------------------------
Delimiter: ","
chr (1): Species
dbl (4): S.length, S.width, P.length, P.width

i Use `spec()` to retrieve the full column specification for this data.
i Specify the column types or set `show_col_types = FALSE` to quiet this message.

# A tibble: 150 x 5
   S.length S.width P.length P.width Species    
      <dbl>   <dbl>    <dbl>   <dbl> <chr>      
 1      5.1     3.5      1.4     0.2 Iris-setosa
 2      4.9     3        1.4     0.2 Iris-setosa
 3      4.7     3.2      1.3     0.2 Iris-setosa
 4      4.6     3.1      1.5     0.2 Iris-setosa
 5      5       3.6      1.4     0.2 Iris-setosa
 6      5.4     3.9      1.7     0.4 Iris-setosa
 7      4.6     3.4      1.4     0.3 Iris-setosa
 8      5       3.4      1.5     0.2 Iris-setosa
 9      4.4     2.9      1.4     0.2 Iris-setosa
10      4.9     3.1      1.5     0.1 Iris-setosa
# ... with 140 more rows
…
