6 장 Tidyverse를 활용한 데이터 다루기 | R과 통계분석
…
예제: tidyr::billboard

데이터 프레임 tidyr::billboard에는 2000년 Billboard Top 100에 오른 노래의 가수(artist)와 노래 제목(track), top 100 리스트에 들어간 날짜(date.entered), 그리고 리스트에 오른 이후의 매주 순위가 변수wk1부터 wk76까지 입력되어 있다. 해당 노래가 top 100 리스트에서 제외되면 NA가 입력되기 때문에, 변수 wk1부터 wk76에는 NA가 많이 입력되어 있다. 특히 wk66부터 wk76까지는 모든 자료가 NA로 입력되어서 변수 유형이 논리형으로 되어 있다.

우리가 원하는 첫 번째 분석은 매주 연속해서 top 100에 올라있던 노래만을 대상으로 리스트에 머물러 있던 최장 기간과 그 기간 중 최고 순위를 알아내는 것이다.

billboard |> 
  print(n = 5)
## # A tibble: 317 × 79
##   artist      track date.entered   wk1   wk2   wk3   wk4   wk5   wk6   wk7   wk8
##   <chr>       <chr> <date>       <dbl> <dbl> <dbl> <dbl> <dbl> <dbl> <dbl> <dbl>
## 1 2 Pac       Baby… 2000-02-26      87    82    72    77    87    94    99    NA
## 2 2Ge+her     The … 2000-09-02      91    87    92    NA    NA    NA    NA    NA
## 3 3 Doors Do… Kryp… 2000-04-08      81    70    68    67    66    57    54    53
## 4 3 Doors Do… Loser 2000-10-21      76    76    72    69    67    65    55    59
## 5 504 Boyz    Wobb… 2000-04-15      57    34    25    17    17    31    36    49
## # ℹ 312 more rows
## # ℹ 68 more variables: wk9 <dbl>, wk10 <dbl>, wk11 <dbl>, wk12 <dbl>,
## #   wk13 <dbl>, wk14 <dbl>, wk15 <dbl>, wk16 <dbl>, wk17 <dbl>, wk18 <dbl>,
## #   wk19 <dbl>, wk20 <dbl>, wk21 <dbl>, wk22 <dbl>, wk23 <dbl>, wk24 <dbl>,
## #   wk25 <dbl>, wk26 <dbl>, wk27 <dbl>, wk28 <dbl>, wk29 <dbl>, wk30 <dbl>,
## #   wk31 <dbl>, wk32 <dbl>, wk33 <dbl>, wk34 <dbl>, wk35 <dbl>, wk36 <dbl>,
## #   wk37 <dbl>, wk38 <dbl>, wk39 <dbl>, wk40 <dbl>, wk41 <dbl>, wk42 <dbl>, …

이런 구조의 데이터는 매우 흔하게 볼 수 있는 것이며, tidy 데이터 구조로 오해하기도 한다.
그러나 변수 wk1부터 wk76은 모두 노래의 ’순위’이기 때문에 하나의 열에 입력이 되어야 적절한 통계분석이 가능하게 된다.
따라서 열 wk1부터 wk76까지에 입력된 자료는 rank라는 이름의 열로 모으고, 열의 이름은 week라는 이름의 열에 입력해 보자. 이 변환 작업은 cols에 wk1:wk76 또는 starts_with("wk")를, names_to에 "week"를, 그리고 values_to에 "rank"를 각각 지정하면 된다.

billboard |> 
  pivot_longer(
    cols = wk1:wk76,
    names_to = "week",
    values_to = "rank"
    )
## # A tibble: 24,092 × 5
##    artist track                   date.entered week   rank
##    <chr>  <chr>                   <date>       <chr> <dbl>
##  1 2 Pac  Baby Don't Cry (Keep... 2000-02-26   wk1      87
##  2 2 Pac  Baby Don't Cry (Keep... 2000-02-26   wk2      82
##  3 2 Pac  Baby Don't Cry (Keep... 2000-02-26   wk3      72
##  4 2 Pac  Baby Don't Cry (Keep... 2000-02-26   wk4      77
##  5 2 Pac  Baby Don't Cry (Keep... 2000-02-26   wk5      87
##  6 2 Pac  Baby Don't Cry (Keep... 2000-02-26   wk6      94
##  7 2 Pac  Baby Don't Cry (Keep... 2000-02-26   wk7      99
##  8 2 Pac  Baby Don't Cry (Keep... 2000-02-26   wk8      NA
##  9 2 Pac  Baby Don't Cry (Keep... 2000-02-26   wk9      NA
## 10 2 Pac  Baby Don't Cry (Keep... 2000-02-26   wk10     NA
## # ℹ 24,082 more rows
…
또한 변수 rank에 NA가 입력된 행을 제거하는 것은 values_drop_na에 TRUE를 지정하면 values_to로 지정된 열에 NA가 입력되는 행은 자동으로 제거된다. 자료의 특성으로 NA가 많을 수밖에 없는 경우에는 필요한 옵션이 된다.

top_100 <- billboard |> 
  pivot_longer(
    cols = wk1:wk76, 
    names_to = "week",
    names_prefix = "wk",
    names_transform = list(week = as.integer),
    values_to = "rank",
    values_drop_na = TRUE
  )
top_100 |> 
  print(n=5)
## # A tibble: 5,307 × 5
##   artist track                   date.entered  week  rank
##   <chr>  <chr>                   <date>       <int> <dbl>
## 1 2 Pac  Baby Don't Cry (Keep... 2000-02-26       1    87
## 2 2 Pac  Baby Don't Cry (Keep... 2000-02-26       2    82
## 3 2 Pac  Baby Don't Cry (Keep... 2000-02-26       3    72
## 4 2 Pac  Baby Don't Cry (Keep... 2000-02-26       4    77
## 5 2 Pac  Baby Don't Cry (Keep... 2000-02-26       5    87
## # ℹ 5,302 more rows

이번에는 함수 mutate() 등을 이어서 사용하는 방법을 살펴보자.
변수 week의 자료에서 문자열 "wk"를 제거하고 변수의 유형을 정수형으로 바꾸는 작업은 gsub()와 as.integer()를 mutate()에서 사용하면 된다.

billboard |> 
  pivot_longer(
    cols = wk1:wk76,
    names_to = "week",
    values_to = "rank"
    ) |> 
  mutate(week = gsub("wk", "", week)) |> 
  mutate(week = as.integer(week))
## # A tibble: 24,092 × 5
##    artist track                   date.entered  week  rank
##    <chr>  <chr>                   <date>       <int> <dbl>
##  1 2 Pac  Baby Don't Cry (Keep... 2000-02-26       1    87
##  2 2 Pac  Baby Don't Cry (Keep... 2000-02-26       2    82
##  3 2 Pac  Baby Don't Cry (Keep... 2000-02-26       3    72
##  4 2 Pac  Baby Don't Cry (Keep... 2000-02-26       4    77
##  5 2 Pac  Baby Don't Cry (Keep... 2000-02-26       5    87
##  6 2 Pac  Baby Don't Cry (Keep... 2000-02-26       6    94
##  7 2 Pac  Baby Don't Cry (Keep... 2000-02-26       7    99
##  8 2 Pac  Baby Don't Cry (Keep... 2000-02-26       8    NA
##  9 2 Pac  Baby Don't Cry (Keep... 2000-02-26       9    NA
## 10 2 Pac  Baby Don't Cry (Keep... 2000-02-26      10    NA
## # ℹ 24,082 more rows
…
데이터 프레임에서 NA가 입력된 행을 제거하는 작업은 함수 tidyr::drop_na()로 진행할 수 있다.
변수를 지정하면 해당 변수에 NA가 있는 행을 제거하게 된다.
변수는 <tidy-select> 방식으로 지정할 수 있으며, 생략하면 모든 변수를 대상으로 NA가 있는지 여부를 확인하게 된다.

함수 parse_number()와 drop_na()를 사용해서 필요한 작업을 진행해 보자.

billboard |> 
  pivot_longer(
    cols = wk1:wk76,
    names_to = "week",
    values_to = "rank"
    ) |> 
  mutate(week = parse_number(week)) |> 
  drop_na(rank)
## # A tibble: 5,307 × 5
##    artist  track                   date.entered  week  rank
##    <chr>   <chr>                   <date>       <dbl> <dbl>
##  1 2 Pac   Baby Don't Cry (Keep... 2000-02-26       1    87
##  2 2 Pac   Baby Don't Cry (Keep... 2000-02-26       2    82
##  3 2 Pac   Baby Don't Cry (Keep... 2000-02-26       3    72
##  4 2 Pac   Baby Don't Cry (Keep... 2000-02-26       4    77
##  5 2 Pac   Baby Don't Cry (Keep... 2000-02-26       5    87
##  6 2 Pac   Baby Don't Cry (Keep... 2000-02-26       6    94
##  7 2 Pac   Baby Don't Cry (Keep... 2000-02-26       7    99
##  8 2Ge+her The Hardest Part Of ... 2000-09-02       1    91
##  9 2Ge+her The Hardest Part Of ... 2000-09-02       2    87
## 10 2Ge+her The Hardest Part Of ... 2000-09-02       3    92
## # ℹ 5,297 more rows

이제 데이터 프레임 top_100을 대상으로 원하는 분석을 할 수 있게 되었다. 매주 연속해서 top 100에 올라있던 노래만을 대상으로 리스트에 머물러 있던 최장 기간과 그 기간 중 최고 순위는 다음과 같이 알아볼 수 있다.

top_100 |> 
  group_by(artist, track) |> 
  filter(n() == max(week)) |> 
  summarise(period = max(week), top_rank = min(rank)) |> 
  ungroup() |> 
  arrange(desc(period)) |> 
  print(n=5)
## # A tibble: 302 × 4
##   artist           track               period top_rank
##   <chr>            <chr>                <int>    <dbl>
## 1 3 Doors Down     Kryptonite              53        3
## 2 Hill, Faith      Breathe                 53        2
## 3 Creed            With Arms Wide Open     47        1
## 4 Joe              I Wanna Know            44        4
## 5 Vertical Horizon Everything You Want     41        1
## # ℹ 297 more rows

두 번째 분석으로써 연속해서 1위를 유지했던 노래 중 가장 오랫동안 정상을 유지했던 2곡을 알아보자.

top_100 |> 
    filter(rank == 1) |>
    group_by(artist, track) |>
    filter((max(week) - min(week) + 1) == n()) |>
    count(sort = TRUE) |> 
    print(n=2)
## # A tibble: 16 × 3
## # Groups:   artist, track [16]
##   artist          track                       n
##   <chr>           <chr>                   <int>
## 1 Destiny's Child Independent Women Pa...    11
## 2 Santana         Maria, Maria               10
## # ℹ 14 more rows

예제: tidyr::who2

데이터 프레임 who2의 내용을 확인해 보자.

who2
## # A tibble: 7,240 × 58
##    country      year sp_m_014 sp_m_1524 sp_m_2534 sp_m_3544 sp_m_4554 sp_m_5564
##    <chr>       <dbl>    <dbl>     <dbl>     <dbl>     <dbl>     <dbl>     <dbl>
##  1 Afghanistan  1980       NA        NA        NA        NA        NA        NA
##  2 Afghanistan  1981       NA        NA        NA        NA        NA        NA
##  3 Afghanistan  1982       NA        NA        NA        NA        NA        NA
##  4 Afghanistan  1983       NA        NA        NA        NA        NA        NA
##  5 Afghanistan  1984       NA        NA        NA        NA        NA        NA
##  6 Afghanistan  1985       NA        NA        NA        NA        NA        NA
##  7 Afghanistan  1986       NA        NA        NA        NA        NA        NA
##  8 Afghanistan  1987       NA        NA        NA        NA        NA        NA
##  9 Afghanistan  1988       NA        NA        NA        NA        NA        NA
## 10 Afghanistan  1989       NA        NA        NA        NA        NA        NA
## # ℹ 7,230 more rows
## # ℹ 50 more variables: sp_m_65 <dbl>, sp_f_014 <dbl>, sp_f_1524 <dbl>,
## #   sp_f_2534 <dbl>, sp_f_3544 <dbl>, sp_f_4554 <dbl>, sp_f_5564 <dbl>,
## #   sp_f_65 <dbl>, sn_m_014 <dbl>, sn_m_1524 <dbl>, sn_m_2534 <dbl>,
## #   sn_m_3544 <dbl>, sn_m_4554 <dbl>, sn_m_5564 <dbl>, sn_m_65 <dbl>,
## #   sn_f_014 <dbl>, sn_f_1524 <dbl>, sn_f_2534 <dbl>, sn_f_3544 <dbl>,
## #   sn_f_4554 <dbl>, sn_f_5564 <dbl>, sn_f_65 <dbl>, ep_m_014 <dbl>, …
…
따라서 변수 sp_m_014를 포함한 56개 변수를 하나의 변수로 통합하지 말고, 세 변수로 나누어 통합하는 것이 필요한 데이터가 된다.
통합 대상 변수를 세 변수로 나누어 통합하는 방법은 names_to에 길이가 3인 문자형 벡터로 변수 이름을 지정하고,
names_sep에 통합 대상 변수 이름을 구분하는 구분자를 지정하면 된다.

또한 결핵 환자 수가 입력되는 변수 count에 NA가 입력된 행은 모두 삭제하도록 하자.

who2 |> 
  pivot_longer(
    cols = !(country:year),
    names_to = c("diagnosis", "gender", "age"),
    names_sep = "_",
    values_to = "count"
  ) |> 
  drop_na(count)
## # A tibble: 76,046 × 6
##    country      year diagnosis gender age   count
##    <chr>       <dbl> <chr>     <chr>  <chr> <dbl>
##  1 Afghanistan  1997 sp        m      014       0
##  2 Afghanistan  1997 sp        m      1524     10
##  3 Afghanistan  1997 sp        m      2534      6
##  4 Afghanistan  1997 sp        m      3544      3
##  5 Afghanistan  1997 sp        m      4554      5
##  6 Afghanistan  1997 sp        m      5564      2
##  7 Afghanistan  1997 sp        m      65        0
##  8 Afghanistan  1997 sp        f      014       5
##  9 Afghanistan  1997 sp        f      1524     38
## 10 Afghanistan  1997 sp        f      2534     36
## # ℹ 76,036 more rows
…
예제: tidyr::fish_encounters

이 데이터 프레임은 태그를 부착한 19마리 물고기(fish)가 어떤 강을 따라 이동하는 동안 특정 지점(station)에서 움직임이 관측됐는지 여부(seen)를 기록한 자료이다. 움직임이 관측된 station만 자료에 나타나 있어서 변수 seen은 모든 행에서 1을 값으로 갖고 있다.

fish_encounters |> 
  print(n = 5)
## # A tibble: 114 × 3
##   fish  station  seen
##   <fct> <fct>   <int>
## 1 4842  Release     1
## 2 4842  I80_1       1
## 3 4842  Lisbon      1
## 4 4842  Rstr        1
## 5 4842  Base_TD     1
## # ℹ 109 more rows

물고기의 움직임이 관측되지 않은 지점에 대한 자료도 중요한 정보를 담고 있다고 할 수 있는데, 지금의 구조에서는 그 정보를 얻을 수 없게 되어 있다. 물고기마다 모든 지점에서의 움직임 관측 여부를 표현하기 위해서는 변수 station에 입력된 각 지점이 변수로 전환되어야 한다.

fish_encounters |> 
  pivot_wider(names_from = station, 
              values_from = seen
              ) |> 
  print(n = 5)
## # A tibble: 19 × 12
##   fish  Release I80_1 Lisbon  Rstr Base_TD   BCE   BCW  BCE2  BCW2   MAE   MAW
##   <fct>   <int> <int>  <int> <int>   <int> <int> <int> <int> <int> <int> <int>
## 1 4842        1     1      1     1       1     1     1     1     1     1     1
## 2 4843        1     1      1     1       1     1     1     1     1     1     1
## 3 4844        1     1      1     1       1     1     1     1     1     1     1
## 4 4845        1     1      1     1       1    NA    NA    NA    NA    NA    NA
## 5 4847        1     1      1    NA      NA    NA    NA    NA    NA    NA    NA
## # ℹ 14 more rows

움직임이 관측되지 않은 지점에 대해서는 입력된 자료가 없기 때문에 해당 위치에 NA가 표시되었다.
하지만 관측이 안된 것은 변수 seen의 값이 0이 되는 것이므로 NA를 0으로 바꾸는 것이 더 좋을 것이다.
이렇게 열을 확장하는 과정에서 발생할 수 있는 NA 대신 다른 값을 입력해야 할 때에는 옵션 values_fill에 대신 입력하려는 값을 지정하면 된다.

fish_encounters |> 
  pivot_wider(names_from = station, 
              values_from = seen,
              values_fill = 0
              ) |> 
  print(n = 5)
## # A tibble: 19 × 12
##   fish  Release I80_1 Lisbon  Rstr Base_TD   BCE   BCW  BCE2  BCW2   MAE   MAW
##   <fct>   <int> <int>  <int> <int>   <int> <int> <int> <int> <int> <int> <int>
## 1 4842        1     1      1     1       1     1     1     1     1     1     1
## 2 4843        1     1      1     1       1     1     1     1     1     1     1
## 3 4844        1     1      1     1       1     1     1     1     1     1     1
## 4 4845        1     1      1     1       1     0     0     0     0     0     0
## 5 4847        1     1      1     0       0     0     0     0     0     0     0
## # ℹ 14 more rows
…
sum(str_count(words, "u"))
## [1] 189

모음 "e"가 포함된 단어의 개수는 다음과 같이 확인할 수 있다.

sum(str_detect(words, "e"))
## [1] 536

데이터 프레임 babynames::babynames에는 연도별로 많이 사용되는 신생아 이름과 동일 이름의 신생아 수, 그리고 해당 연도를 기준으로 동일 이름의 신생아 비율이 입력되어 있다.

library(babynames)
babynames
## # A tibble: 1,924,665 × 5
##     year sex   name          n   prop
##    <dbl> <chr> <chr>     <int>  <dbl>
##  1  1880 F     Mary       7065 0.0724
##  2  1880 F     Anna       2604 0.0267
##  3  1880 F     Emma       2003 0.0205
##  4  1880 F     Elizabeth  1939 0.0199
##  5  1880 F     Minnie     1746 0.0179
##  6  1880 F     Margaret   1578 0.0162
##  7  1880 F     Ida        1472 0.0151
##  8  1880 F     Alice      1414 0.0145
##  9  1880 F     Bertha     1320 0.0135
## 10  1880 F     Sarah      1288 0.0132
## # ℹ 1,924,655 more rows

신생아 이름 중 소문자 “x”가 들어있는 이름을 선택해 보자.

babynames |> 
  filter(str_detect(name, "x"))
## # A tibble: 16,317 × 5
##     year sex   name          n      prop
##    <dbl> <chr> <chr>     <int>     <dbl>
##  1  1880 F     Roxie        62 0.000635 
##  2  1880 F     Dixie        15 0.000154 
##  3  1880 F     Roxanna       9 0.0000922
##  4  1880 F     Texas         5 0.0000512
##  5  1880 M     Alexander   211 0.00178  
##  6  1880 M     Alex        147 0.00124  
##  7  1880 M     Felix        92 0.000777 
##  8  1880 M     Max          52 0.000439 
##  9  1880 M     Axel         16 0.000135 
## 10  1880 M     Rex          13 0.000110 
## # ℹ 16,307 more rows

소문자 “x”가 들어있는 이름 중 가장 많이 사용되는 이름을 찾기 위해서는 함수 count()에서 변수 n을 가중값으로 사용해야 한다.

babynames |> 
  filter(str_detect(name, "x")) |> 
  count(name, wt = n, sort = TRUE)
## # A tibble: 974 × 2
##    name            n
##    <chr>       <int>
##  1 Alexander  665492
##  2 Alexis     399551
##  3 Alex       278705
##  4 Alexandra  232223
##  5 Max        148787
##  6 Alexa      123032
##  7 Maxine     112261
##  8 Alexandria  97679
##  9 Maxwell     90486
## 10 Jaxon       71234
## # ℹ 964 more rows

이번에는 소문자 “x”가 들어있는 이름의 연도별 비율을 구해보자.

babynames |> 
  group_by(year) |> 
  summarise(prop_x = mean(str_detect(name, "x")))
## # A tibble: 138 × 2
##     year  prop_x
##    <dbl>   <dbl>
##  1  1880 0.0065 
##  2  1881 0.00879
##  3  1882 0.00940
##  4  1883 0.00768
##  5  1884 0.00827
##  6  1885 0.00872
##  7  1886 0.00878
##  8  1887 0.00801
##  9  1888 0.00905
## 10  1889 0.00888
## # ℹ 128 more rows
…
sentences[1:3]
## [1] "The birch canoe slid on the smooth planks." 
## [2] "Glue the sheet to the dark blue background."
## [3] "It's easy to tell the depth of a well."

벡터 sentences에 있는 모든 구두점(마침표, 쉼표 등)을 제거하고, 단어별로 분리한 결과를 새로운 벡터 sentences_1에 할당하라. 처음 10개 단어는 다음과 같다.

sentences_1[1:10]
##  [1] "The"    "birch"  "canoe"  "slid"   "on"     "the"    "smooth" "planks"
##  [9] "Glue"   "the"

벡터 sentences_1를 구성하고 있는 단어의 빈도를 계산하고자 한다. 단어를 모두 소문자로 변환하고, 단어별 빈도를 계산해서 가장 빈도가 높은 다섯 단어를 다음과 같이 출력하라.

## # A tibble: 1,889 × 2
##   value     n
##   <chr> <int>
## 1 the     744
## 2 a       213
## 3 of      132
## 4 to      123
## 5 and     118
## # ℹ 1,884 more rows
…
