5 장 ggplot2에 의한 자료 시각화 | R과 통계분석
…
그림 5.1: 보리 자료에 대한 다중 패널 점그림

자료 시각화에 특히 강점이 있는 R에는 몇 가지의 그래프 작성 시스템이 있다. 함수 plot() 등이 속해 있는
base graphics도 그 중 하나인데, 이들 그래프 작성 시스템 중 가장 효과적이고 여러 면에서 우수한 시스템이 바로 ggplot2라고 할 수 있다.
그래프 작성에 일관된 규칙이 있어서 복잡한 상황에서도 쉽게 확장이 가능하다는 것이 큰 장점 중 하나이다.

패키지 ggplot2도 core tidyverse에 속해있기 때문에 library(tidyverse)를 먼저 실행해 주면 사용할 수 있다.

5.1 ggplot2 시작하기

패키지 ggplot2에 있는 데이터 프레임 mpg의 변수 displ과 hwy의 관계를 산점도로 나타내보자.
변수 displ은 리터 단위의 배기량이고, hwy는 고속도로 연비이다.

mpg
## # A tibble: 234 × 11
##    manufacturer model      displ  year   cyl trans drv     cty   hwy fl    class
##    <chr>        <chr>      <dbl> <int> <int> <chr> <chr> <int> <int> <chr> <chr>
##  1 audi         a4           1.8  1999     4 auto… f        18    29 p     comp…
##  2 audi         a4           1.8  1999     4 manu… f        21    29 p     comp…
##  3 audi         a4           2    2008     4 manu… f        20    31 p     comp…
##  4 audi         a4           2    2008     4 auto… f        21    30 p     comp…
##  5 audi         a4           2.8  1999     6 auto… f        16    26 p     comp…
##  6 audi         a4           2.8  1999     6 manu… f        18    26 p     comp…
##  7 audi         a4           3.1  2008     6 auto… f        18    27 p     comp…
##  8 audi         a4 quattro   1.8  1999     4 manu… 4        18    26 p     comp…
##  9 audi         a4 quattro   1.8  1999     4 auto… 4        16    25 p     comp…
## 10 audi         a4 quattro   2    2008     4 manu… 4        20    28 p     comp…
## # ℹ 224 more rows
…
cut_number(x, n): 벡터 x를 n개의 구간으로 구분하되 각 구간에 속한 데이터 개수가 비슷해지도록 구분

예를 들어 데이터 프레임 airquality에서 반응변수 Ozone과 설명변수 Solar.R과 Wind의 관계를 알아보자.
이와 같이 세 연속형 변수의 관계를 알아보는데 적합한 그래프 중 하나는 설명변수 중 하나를 범주형으로 변환하여 faceting하는 것이다.
변수 Wind를 4개의 구간으로 구분하되 각 구간에 속한 데이터의 개수가 비슷해지도록 구분하고,
각 그룹에서 나머지 두 변수의 산점도를 작성해 보자.

air_1 <- airquality |> 
  mutate(Wind_d = cut_number(Wind, n = 4)) 

air_1에 추가된 변수 Wind_d는 구간이 범주 이름으로 입력된 요인이라는 것을 알 수 있다.

air_1 |> as_tibble()
## # A tibble: 153 × 7
##    Ozone Solar.R  Wind  Temp Month   Day Wind_d     
##    <int>   <int> <dbl> <int> <int> <int> <fct>      
##  1    41     190   7.4    67     5     1 [1.7,7.4]  
##  2    36     118   8      72     5     2 (7.4,9.7]  
##  3    12     149  12.6    74     5     3 (11.5,20.7]
##  4    18     313  11.5    62     5     4 (9.7,11.5] 
##  5    NA      NA  14.3    56     5     5 (11.5,20.7]
##  6    28      NA  14.9    66     5     6 (11.5,20.7]
##  7    23     299   8.6    65     5     7 (7.4,9.7]  
##  8    19      99  13.8    59     5     8 (11.5,20.7]
##  9     8      19  20.1    61     5     9 (11.5,20.7]
## 10    NA     194   8.6    69     5    10 (7.4,9.7]  
## # ℹ 143 more rows
…
3. 패키지 ggplot2에 있는 데이터 프레임 mpg에는 1999년과 2008년에 많이 판매됐던 38 종류 자동차에 대한 11개 변수가 입력되어 있다.

11개 변수 중 문자형 변수만 선택해서 다음과 같이 출력해 보자.

## # A tibble: 234 × 6
##   manufacturer model trans      drv   fl    class  
##   <chr>        <chr> <chr>      <chr> <chr> <chr>  
## 1 audi         a4    auto(l5)   f     p     compact
## 2 audi         a4    manual(m5) f     p     compact
## 3 audi         a4    manual(m6) f     p     compact
## # ℹ 231 more rows

문자형 변수 중 manufacturer, model을 제외한 나머지 변수를 모두 요인으로 변경시켜서 다음과 같이 출력해 보자.

## # A tibble: 234 × 6
##   manufacturer model trans      drv   fl    class  
##   <chr>        <chr> <fct>      <fct> <fct> <fct>  
## 1 audi         a4    auto(l5)   f     p     compact
## 2 audi         a4    manual(m5) f     p     compact
## 3 audi         a4    manual(m6) f     p     compact
## # ℹ 231 more rows
…
4. 패키지 MASS에 있는 데이터 프레임 Cars93는 1993년 미국에서 판매된 93 종류의 자동차에 대한 데이터로 27개 변수로 구성되어 있다.

모든 변수의 처음 3 케이스를 다음과 같이 출력해 보자.

## # A tibble: 93 × 27
##   Manufacturer Model   Type    Min.Price Price Max.Price MPG.city MPG.highway
##   <fct>        <fct>   <fct>       <dbl> <dbl>     <dbl>    <int>       <int>
## 1 Acura        Integra Small        12.9  15.9      18.8       25          31
## 2 Acura        Legend  Midsize      29.2  33.9      38.7       18          25
## 3 Audi         90      Compact      25.9  29.1      32.3       20          26
##   AirBags            DriveTrain Cylinders EngineSize Horsepower   RPM
##   <fct>              <fct>      <fct>          <dbl>      <int> <int>
## 1 None               Front      4                1.8        140  6300
## 2 Driver & Passenger Front      6                3.2        200  5500
## 3 Driver only        Front      6                2.8        172  5500
##   Rev.per.mile Man.trans.avail Fuel.tank.capacity Passengers Length Wheelbase
##          <int> <fct>                        <dbl>      <int>  <int>     <int>
## 1         2890 Yes                           13.2          5    177       102
## 2         2335 Yes                           18            5    195       115
## 3         2280 Yes                           16.9          5    180       102
##   Width Turn.circle Rear.seat.room Luggage.room Weight Origin  Make         
##   <int>       <int>          <dbl>        <int>  <int> <fct>   <fct>        
## 1    68          37           26.5           11   2705 non-USA Acura Integra
## 2    71          38           30             15   3560 non-USA Acura Legend 
## 3    67          37           28             14   3375 non-USA Audi 90      
## # ℹ 90 more rows

변수 중 요인만 선택해서 다음과 같이 출력해 보자.

## # A tibble: 93 × 9
##   Manufacturer Model   Type    AirBags            DriveTrain Cylinders
##   <fct>        <fct>   <fct>   <fct>              <fct>      <fct>    
## 1 Acura        Integra Small   None               Front      4        
## 2 Acura        Legend  Midsize Driver & Passenger Front      6        
## 3 Audi         90      Compact Driver only        Front      6        
##   Man.trans.avail Origin  Make         
##   <fct>           <fct>   <fct>        
## 1 Yes             non-USA Acura Integra
## 2 Yes             non-USA Acura Legend 
## 3 Yes             non-USA Audi 90      
## # ℹ 90 more rows
…
5. 패키지 ggplot2의 데이터 프레임 mpg와 패키지 MASS의 데이터 프레임 Cars93는 자동차 연비와 관련된 자료가 입력되어 있다.

Cars93에서 변수 Manufacturer, Man.trans.avail, MPG.highway, EngineSize, Cylinders을 선택해서 데이터 프레임 cars_93에 입력하라. mpg에서는 변수 manufacturer, trans, hwy, displ, cyl을 선택하되, 변수 year가 1999인 케이스만 선택해서 데이터 프레임 cars_99에 입력하라. 두 데이터 프레임의 첫 세 케이스의 출력 결과는 다음과 같다.

cars_93 |> print(n = 3)
## # A tibble: 93 × 5
##   Manufacturer Man.trans.avail MPG.highway EngineSize Cylinders
##   <fct>        <fct>                 <int>      <dbl> <fct>    
## 1 Acura        Yes                      31        1.8 4        
## 2 Acura        Yes                      25        3.2 6        
## 3 Audi         Yes                      26        2.8 6        
## # ℹ 90 more rows

cars_99 |> print(n = 3)
## # A tibble: 117 × 5
##   manufacturer trans        hwy displ   cyl
##   <chr>        <chr>      <int> <dbl> <int>
## 1 audi         auto(l5)      29   1.8     4
## 2 audi         manual(m5)    29   1.8     4
## 3 audi         auto(l5)      26   2.8     6
## # ℹ 114 more rows

cars_93과 cars_99의 변수들은 이름은 다르지만, 동일한 내용의 변수들이 순서대로 나열되어 있다. cars_93의 변수 이름을 cars_99의 변수 이름과 같아지도록 변경해 보자. 변경된 결과는 다음과 같다.

cars_93 |> print(n = 3)
## # A tibble: 93 × 5
##   manufacturer trans   hwy displ cyl  
##   <fct>        <fct> <int> <dbl> <fct>
## 1 Acura        Yes      31   1.8 4    
## 2 Acura        Yes      25   3.2 6    
## 3 Audi         Yes      26   2.8 6    
## # ℹ 90 more rows

cars_93의 변수 manufacturer와 trans의 자료를 변경해 보자. 우선 manufacturer의 자료 값을 모두 소문자로 변경하고, trans는 자료 값이 Yes이면 manual로, 아니면 auto로 변경하며, 요인 속성은 유지하도록 한다.
변경된 결과는 다음과 같다.

cars_93 |> print(n = 3)
## # A tibble: 93 × 5
##   manufacturer trans    hwy displ cyl  
##   <chr>        <fct>  <int> <dbl> <fct>
## 1 acura        manual    31   1.8 4    
## 2 acura        manual    25   3.2 6    
## 3 audi         manual    26   2.8 6    
## # ℹ 90 more rows
…
앞 문제의 출력 결과를 보면 trans가 manual이고 cyl이 3, 5, 8, rotary인 경우에 해당하는 케이스는 제거하는 것이 좋을 것으로 보인다. cars_93에서 해당 케이스를 제거하라.

cars_99의 변수들을 변경해 보자. 변수 trans는 자료 중 auto(l3), auto(l4), auto(l5)는 auto로 통합하고, manual(m5)와 manual(m6)는 manual로 통합한다. 또한 hwy와 displ을 제외한 다른 변수는 모두 요인으로 변경한다.
변경된 결과는 다음과 같다.

cars_99 |> print(n = 3)
## # A tibble: 117 × 5
##   manufacturer trans    hwy displ cyl  
##   <fct>        <fct>  <int> <dbl> <fct>
## 1 audi         auto      29   1.8 4    
## 2 audi         manual    29   1.8 4    
## 3 audi         auto      26   2.8 6    
## # ℹ 114 more rows
…
