9 장 자료 탐색 | R과 통계분석
…
이상값으로 나타난 변수 Gross의 값은 $outliers에 리스트로 입력되어 있다. 이것을 벡터 형태로 추출해 보자.

> bp_out <- ggplot_build(bp)[[1]][[1]]$outliers[[1]]
> bp_out
[1] 601 461 435 431 404

이제 변수 Gross가 위의 값을 갖는 관찰값들이 어떤 케이스, 즉 어떤 영화의 총수입에 해당되는지를 알아보자. 우선 영화제목이 데이터 프레임 alltime.movies의 rownames로 입력되어 있는데, 이것을 데이터 프레임에 변수로 포함시켜 보자.

> alltime <- alltime.movies %>%
+   rownames_to_column(var = "Movie.Title") %>%
+   as_tibble() %>% 
+   print(n = 3)
# A tibble: 79 × 3
  Movie.Title                               Gross Release.Year
  <chr>                                     <dbl>        <dbl>
1 "Titanic                                "   601         1997
2 "Star Wars                              "   461         1977
3 "E.T.                                   "   435         1982
# … with 76 more rows
# ℹ Use `print(n = ...)` to see more rows
…
