4 장 dplyr에 의한 데이터 다듬기 | R과 통계분석
…
예제: airquality

데이터 프레임 airquality는 1973년 5월부터 9월까지 미국 뉴욕시의 공기의 질과 관련된 조사 결과를 담은 데이터 세트이다. airs라는 이름의 tibble로 전환하고, 처음 5개 케이스를 출력해 보자.

airs <- as_tibble(airquality) |> 
  print(n = 5)
## # A tibble: 153 × 6
##   Ozone Solar.R  Wind  Temp Month   Day
##   <int>   <int> <dbl> <int> <int> <int>
## 1    41     190   7.4    67     5     1
## 2    36     118   8      72     5     2
## 3    12     149  12.6    74     5     3
## 4    18     313  11.5    62     5     4
## 5    NA      NA  14.3    56     5     5
## # ℹ 148 more rows

변수 Ozone 또는 Solar.R이 결측값인 행을 선택해 보자. 결측값의 확인은 함수 is.na()로 할 수 있다.

airs |> 
  filter(is.na(Ozone) | is.na(Solar.R)) |> 
  print(n = 5)
## # A tibble: 42 × 6
##   Ozone Solar.R  Wind  Temp Month   Day
##   <int>   <int> <dbl> <int> <int> <int>
## 1    NA      NA  14.3    56     5     5
## 2    28      NA  14.9    66     5     6
## 3    NA     194   8.6    69     5    10
## 4     7      NA   6.9    74     5    11
## 5    NA      66  16.6    57     5    25
## # ℹ 37 more rows
…
이번에는 5번째 행부터 10번째 행을 제거해 보자.

iris_t |>  
  slice(-(5:10)) |>  
  print(n = 3)
## # A tibble: 144 × 5
##   Sepal.Length Sepal.Width Petal.Length Petal.Width Species
##          <dbl>       <dbl>        <dbl>       <dbl> <fct>  
## 1          5.1         3.5          1.4         0.2 setosa 
## 2          4.9         3            1.4         0.2 setosa 
## 3          4.7         3.2          1.3         0.2 setosa 
## # ℹ 141 more rows
…
4.1.3 행의 정렬: arrange()

함수 arrange()는 특정 변수를 기준으로 데이터 프레임의 행을 재배열할 때 사용된다. 함수에는 정렬의 기준이 되는 변수를 입력하면 되는데, 2개 이상의 정렬 기준 변수를 입력하게 되면 추가된 변수는 앞선 변수가 같은 값을 갖는 행들의 정렬 기준으로 사용된다. 정렬은 오름차순이 디폴트이며, 내림차순으로 배열하고자 할 때에는 기준 변수를 함수 desc()와 함께 사용해야 한다.

예제: mtcars

데이터 프레임 mtcars를 tibble로 전환하고 변수 mpg의 값이 가장 좋지 않은 자동차부터 시작해서 더 좋아지는 순서로 다시 배열해 보자. 연비가 좋지 않다는 것은 연비가 낮다는 것을 의미하는 것이므로 변수 mpg를 오름차순 정렬 변수로 사용하면 된다.

mtcars_t <- as_tibble(mtcars)
mtcars_t |>  
  arrange(mpg) |>  
  print(n = 5)
## # A tibble: 32 × 11
##     mpg   cyl  disp    hp  drat    wt  qsec    vs    am  gear  carb
##   <dbl> <dbl> <dbl> <dbl> <dbl> <dbl> <dbl> <dbl> <dbl> <dbl> <dbl>
## 1  10.4     8   472   205  2.93  5.25  18.0     0     0     3     4
## 2  10.4     8   460   215  3     5.42  17.8     0     0     3     4
## 3  13.3     8   350   245  3.73  3.84  15.4     0     0     3     4
## 4  14.3     8   360   245  3.21  3.57  15.8     0     0     3     4
## 5  14.7     8   440   230  3.23  5.34  17.4     0     0     3     4
## # ℹ 27 more rows

데이터 프레임 mtcars_t를 변수 mpg의 값이 가장 좋지 않은 자동차부터 시작해서 더 좋아지는 순서로 다시 배열을 하되, mpg 값이 같은 자동차의 경우에는 변수 wt의 값이 높은 자동차부터 배열해 보자. 변수 wt를 두 번째 정렬 기준 변수로 입력하되, 내림차순 정렬이 필요하므로 함수 desc()를 이용한다.

mtcars_t |>  
  arrange(mpg, desc(wt)) |>  
  print(n = 5)
## # A tibble: 32 × 11
##     mpg   cyl  disp    hp  drat    wt  qsec    vs    am  gear  carb
##   <dbl> <dbl> <dbl> <dbl> <dbl> <dbl> <dbl> <dbl> <dbl> <dbl> <dbl>
## 1  10.4     8   460   215  3     5.42  17.8     0     0     3     4
## 2  10.4     8   472   205  2.93  5.25  18.0     0     0     3     4
## 3  13.3     8   350   245  3.73  3.84  15.4     0     0     3     4
## 4  14.3     8   360   245  3.21  3.57  15.8     0     0     3     4
## 5  14.7     8   440   230  3.23  5.34  17.4     0     0     3     4
## # ℹ 27 more rows
…
데이터 세트의 크기가 커짐에 따라 변수의 개수가 수백 또는 수천이 되는 경우를 접하는 것이 더 이상 드문 상황은 아니다. 이러한 경우, 분석에 필요한 변수를 선택하여 데이터 세트의 크기를 줄이는 것은 매우 중요한 작업이 된다. 함수 select()에서는 패키지 tidyselect에 의해 구현되는 효과적인 변수 선택 방법을 이용할 수 있다. 여기에서 작동되는 <tidy-select> 방식은 기본적으로 변수들의 집합을 구성하는 것으로 생각하면 된다. 구체적인 선택 방법은 열 번호 또는 열 이름에 의한 방법과 변수의 유형에 의한 방법, 그리고 변 수 선택과 관련된 몇몇 함수들을 이용하는 방법으로 구분할 수 있다.

열 번호(또는 열 이름)에 의한 선택

가장 기본적인 방법은 열 번호를 콤마로 구분하여 나열하는 것이다.
연속된 열 변호는 콜론(:) 연산자를 이용해서 나타낼 수 있다.

데이터 프레임 mtcars의 행 이름을 변수 row.name으로 추가하고 tibble로 전환해 보자.

mtcars_t <- mtcars |>  
  rownames_to_column(var = "row.name") |>  
  as_tibble() |>  
  print(n = 3)
## # A tibble: 32 × 12
##   row.name       mpg   cyl  disp    hp  drat    wt  qsec    vs    am  gear  carb
##   <chr>        <dbl> <dbl> <dbl> <dbl> <dbl> <dbl> <dbl> <dbl> <dbl> <dbl> <dbl>
## 1 Mazda RX4     21       6   160   110  3.9   2.62  16.5     0     1     4     4
## 2 Mazda RX4 W…  21       6   160   110  3.9   2.88  17.0     0     1     4     4
## 3 Datsun 710    22.8     4   108    93  3.85  2.32  18.6     1     1     4     1
## # ℹ 29 more rows

첫 번째에서 세 번째 변수, 그리고 일곱 번째 변수를 선택해 보자.
이 경우에는 열 번호를 함수 c() 없이 그냥 나열해도 결과는 동일하다.

mtcars_t |>  
  select(1:3, 7) |>  
  print(n = 3)
## # A tibble: 32 × 4
##   row.name        mpg   cyl    wt
##   <chr>         <dbl> <dbl> <dbl>
## 1 Mazda RX4      21       6  2.62
## 2 Mazda RX4 Wag  21       6  2.88
## 3 Datsun 710     22.8     4  2.32
## # ℹ 29 more rows

열(변수) 이름은 열 번호와 같은 취급을 받는다. 따라서 다음 방법도 같은 결과를 생성한다.

mtcars_t |> 
  select(row.name:cyl, wt) |> 
  print(n = 3)
## # A tibble: 32 × 4
##   row.name        mpg   cyl    wt
##   <chr>         <dbl> <dbl> <dbl>
## 1 Mazda RX4      21       6  2.62
## 2 Mazda RX4 Wag  21       6  2.88
## 3 Datsun 710     22.8     4  2.32
## # ℹ 29 more rows

열을 제거하고자 하는 경우에는 논리 부정 연산자(!) 또는 마이너스(-) 연산자를 사용해야 한다.
함수 c() 안에 제거하고자 하는 열 번호를 나열하고 논리 부정 연산자를 그 앞에 붙이면 나열된 열로 이루어진 집합의 여집합이 구성되어, 해당되는 열들이 제거되는 것이다. 첫 번째에서 세 번째 변수, 그리고 일곱 번째 변수를 제거해 보자.

mtcars_t |>  
  select(!c(1:3, 7)) |>  
  print(n = 3)
## # A tibble: 32 × 8
##    disp    hp  drat  qsec    vs    am  gear  carb
##   <dbl> <dbl> <dbl> <dbl> <dbl> <dbl> <dbl> <dbl>
## 1   160   110  3.9   16.5     0     1     4     4
## 2   160   110  3.9   17.0     0     1     4     4
## 3   108    93  3.85  18.6     1     1     4     1
## # ℹ 29 more rows

마이너스 연산자는 차집합을 구성하게 된다. 예컨대 select(1:4, -1)은 처음 네 변수 중 첫 번째 변수를 제거하라는 의미가 된다. 그러나 만일 select(1:4, !1)과 같이 논리 부정 연산자를 사용하면 처음 네 변수와 첫 번째 변수를 제외한 나머지 변수와의 합집합을 구성하는 것이 되어서 결국 모든 변수를 다 선택하게 된다.

비록 두 연산자의 의미는 다르지만, 마이너스 연산자가 첫 번째로 입력되면 같은 효과를 볼 수 있다. 따라서 첫 번째에서 세 번째 변수, 그리고 일곱 번째 변수의 제거는 다음과 같이 할 수도 있다.

mtcars_t |>  
  select(-c(1:3, 7)) |>  
  print(n = 3)
## # A tibble: 32 × 8
##    disp    hp  drat  qsec    vs    am  gear  carb
##   <dbl> <dbl> <dbl> <dbl> <dbl> <dbl> <dbl> <dbl>
## 1   160   110  3.9   16.5     0     1     4     4
## 2   160   110  3.9   17.0     0     1     4     4
## 3   108    93  3.85  18.6     1     1     4     1
## # ℹ 29 more rows
…
함수 where()에 입력되는 함수 형태는 두 가지로 구분된다.
첫 번째는 함수의 이름만 입력하는 형태인데, 이것은 하나의 함수를 디폴트 상태로 사용하는 경우이다.
예를 들어, 변수의 유형 파악은 함수 is.numeric() 또는 is.character() 등 is.*() 형태의 함수로 할 수 있는데, 숫자형 변수를 선택한다면 where(is.numeric), 문자형 변수를 선택한다면 where(is.character)와 같이 입력하는 것이다.

두 번째는 패키지 purrr 방식의 형태로써, 여러 함수를 결합하거나, 함수의 디폴트 값을 변경해서 사용하는 경우에 적용되는 방식이다.
기본적인 형태는 물결표(~)로 시작을 하며 .x를 개별 변수 대신 사용하면 된다.
예를 들어 평균값이 5 이하인 변수를 선택한다면, where(~ mean(.x) <= 5)와 같이 입력하면 된다.
패키지 purrr은 core tidyverse에 속한 패키지로서 효율적인 프로그래밍 기법을 제공하고 있다.
자세한 소개는 7장에서 찾아볼 수 있다.

패키지 ggplot2의 데이터 프레임 mpg를 살펴보자.

mpg |>  print(n = 3)
## # A tibble: 234 × 11
##   manufacturer model displ  year   cyl trans      drv     cty   hwy fl    class 
##   <chr>        <chr> <dbl> <int> <int> <chr>      <chr> <int> <int> <chr> <chr> 
## 1 audi         a4      1.8  1999     4 auto(l5)   f        18    29 p     compa…
## 2 audi         a4      1.8  1999     4 manual(m5) f        21    29 p     compa…
## 3 audi         a4      2    2008     4 manual(m6) f        20    31 p     compa…
## # ℹ 231 more rows

데이터 프레임 mpg에서 숫자형 변수만 선택해 보자.

mpg |>  
  select(where(is.numeric)) |>  
  print(n = 3)
## # A tibble: 234 × 5
##   displ  year   cyl   cty   hwy
##   <dbl> <int> <int> <int> <int>
## 1   1.8  1999     4    18    29
## 2   1.8  1999     4    21    29
## 3   2    2008     4    20    31
## # ℹ 231 more rows

몇 가지 변수 유형을 함께 고려해야 하는 경우에는 논리 연산자 &와 |을 사용하게 된다.
예를 들어 숫자형 변수이거나 문자형 변수의 선택은 다음과 같다.

mpg |> 
  select(where(is.numeric) | where(is.character)) |> 
  print(n = 3)
## # A tibble: 234 × 11
##   displ  year   cyl   cty   hwy manufacturer model trans      drv   fl    class 
##   <dbl> <int> <int> <int> <int> <chr>        <chr> <chr>      <chr> <chr> <chr> 
## 1   1.8  1999     4    18    29 audi         a4    auto(l5)   f     p     compa…
## 2   1.8  1999     4    21    29 audi         a4    manual(m5) f     p     compa…
## 3   2    2008     4    20    31 audi         a4    manual(m6) f     p     compa…
## # ℹ 231 more rows

이번에는 숫자형 변수 중에 평균 값이 5 이하인 변수를 선택해 보자.
먼저 함수 select()를 연속해서 사용하는 방법이다.

mpg |>
  select(where(is.numeric)) |>  
  select(where(~ mean(.x) <= 5)) |>  
  print(n = 3)
## # A tibble: 234 × 1
##   displ
##   <dbl>
## 1   1.8
## 2   1.8
## 3   2  
## # ℹ 231 more rows
…
FALSE & NA   # NA에 관계 없이 FALSE
## [1] FALSE
FALSE | NA   # NA에 따라 다른 결과 가능하므로, 결과는 미정
## [1] NA
TRUE | NA    # NA에 관계 없이 TRUE
## [1] TRUE
TRUE & NA    # NA에 따라 다른 결과 가능하므로, 결과는 미정
## [1] NA

이제 &&를 사용해서 숫자형 변수 중에 평균 값이 5 이하인 변수를 선택해 보자.

mpg |>  
  select(where( ~ is.numeric(.x) && mean(.x) <= 5)) |>  
  print(n = 3)
## # A tibble: 234 × 1
##   displ
##   <dbl>
## 1   1.8
## 2   1.8
## 3   2  
## # ℹ 231 more rows
…
num_range("x", 1:10): x1, x2, … , x10과 동일

변수 이름이 입력된 문자형 벡터를 이용하여 변수를 선택할 때 사용할 수 있는 함수들 이다.

all_of(vec): 문자형 벡터 vec에 이름이 입력된 변수 선택. 해당 데이터 프레임에 없는 변수 이름이 vec에 입력되어 있으면 오류 발생.

any_of(vec): 함수 all_of()와 동일함. 단, 데이터 프레임에 없는 변수 이름이 입력 되어도 오류가 발생하지 않음.

예제로 데이터 프레임 mtcars_t에서 첫 번째 변수와 마지막 변수를 선택해 보자.

mtcars_t |> 
  select(1, last_col()) |> 
  print(n = 3)
## # A tibble: 32 × 2
##   row.name       carb
##   <chr>         <dbl>
## 1 Mazda RX4         4
## 2 Mazda RX4 Wag     4
## 3 Datsun 710        1
## # ℹ 29 more rows

이번에는 mtcars_t에서 이름이 m으로 시작하는 변수를 선택해 보자.

mtcars_t |> 
  select(starts_with("m")) |> 
  print(n = 3)
## # A tibble: 32 × 1
##     mpg
##   <dbl>
## 1  21  
## 2  21  
## 3  22.8
## # ℹ 29 more rows

이름이 p로 끝나는 변수도 선택해 보자.

mtcars_t |> 
  select(ends_with("p")) |> 
  print(n = 3)
## # A tibble: 32 × 2
##    disp    hp
##   <dbl> <dbl>
## 1   160   110
## 2   160   110
## 3   108    93
## # ℹ 29 more rows

이름에 A가 있는 변수를 선택해 보자.

mtcars_t |> 
  select(contains("A")) |> 
  print(n = 3)
## # A tibble: 32 × 5
##   row.name       drat    am  gear  carb
##   <chr>         <dbl> <dbl> <dbl> <dbl>
## 1 Mazda RX4      3.9      1     4     4
## 2 Mazda RX4 Wag  3.9      1     4     4
## 3 Datsun 710     3.85     1     4     1
## # ℹ 29 more rows
…
mtcars_t |> 
  select(contains("A", ignore.case = FALSE))
## # A tibble: 32 × 0

문자형 벡터 vars에 다음과 같이 변수 이름을 입력해 보자. 앞에서 생성된 데이터 프레임 mtcars_t에는 변수 mpg와 wt는 있지만, 변수 model은 없는 상태이다.

vars <- c("model", "mpg", "wt")

함수 any_of()를 사용하면 mtcars_t에 있는 두 변수가 선택된다.

mtcars_t |>  
  select(any_of(vars)) |>  
  print(n = 3)
## # A tibble: 32 × 2
##     mpg    wt
##   <dbl> <dbl>
## 1  21    2.62
## 2  21    2.88
## 3  22.8  2.32
## # ℹ 29 more rows

함수 all_of()를 사용하게 되면 model이 mtcars_t에 없는 변수이기 때문에 오류가 발생하게 된다.

mtcars_t |> 
  select(all_of(vars)) 
## Error in `all_of()`:
## ! Can't subset columns that don't exist.
## ✖ Column `model` doesn't exist.

당연한 것이지만, 지금까지 살펴본 세 가지 변수 선택 방법은 서로 혼합해서 사용할 수 있다. 예를 들어 숫자형 변수 중에 이름에 a가 있는 변수는 다음과 같이 선택할 수 있다.

mtcars_t |> 
  select(where(is.numeric) & contains("c")) |> 
  print(n = 3)
## # A tibble: 32 × 3
##     cyl  qsec  carb
##   <dbl> <dbl> <dbl>
## 1     6  16.5     4
## 2     6  17.0     4
## 3     4  18.6     1
## # ℹ 29 more rows
…
mtcars_t |>  pull(var = 3)
##  [1] 6 6 4 6 8 6 8 4 4 6 6 8 8 8 8 8 8 4 4 4 4 8 8 8 8 4 4 4 8 6 8 4

mtcars_t |>  pull(var = am)
##  [1] 1 1 1 0 0 0 0 0 0 0 0 0 0 0 0 0 0 1 1 1 0 0 0 0 0 1 1 1 1 1 1 1

4.2.2 열 이름 변경: rename()과 rename_with()

변수 이름이 매우 복잡하거나 사용하기 불편해서 이름을 변경해야 하는 경우가 많다. 함수 select()로도 변수 이름을 변경할 수 있으나, 함수 내에서 이름이 명시되지 않은 변수는 선택되지 않은 변수가 되어 제거되고, 이름이 변경된 변수만 남게 된다. 변수에 새로운 이름을 주는 방식은 new_name = old_name이 되는데, old_name 자리에는 변수 이름 또는 변수의 열 번호가 올 수 있다.

mtcars_t |>  
  select(model = row.name) |>  
  print(n = 3)
## # A tibble: 32 × 1
##   model        
##   <chr>        
## 1 Mazda RX4    
## 2 Mazda RX4 Wag
## 3 Datsun 710   
## # ℹ 29 more rows

mtcars_t |>  
  select(model = 1) |>  
  print(n = 3)
## # A tibble: 32 × 1
##   model        
##   <chr>        
## 1 Mazda RX4    
## 2 Mazda RX4 Wag
## 3 Datsun 710   
## # ℹ 29 more rows

함수 select()에서 이름이 변경되지 않은 변수도 모두 그대로 유지하려면 함수 everything()을 함께 사용하면 된다.

mtcars_t |>  
  select(model = 1, everything()) |>  
  print(n = 3)
## # A tibble: 32 × 12
##   model          mpg   cyl  disp    hp  drat    wt  qsec    vs    am  gear  carb
##   <chr>        <dbl> <dbl> <dbl> <dbl> <dbl> <dbl> <dbl> <dbl> <dbl> <dbl> <dbl>
## 1 Mazda RX4     21       6   160   110  3.9   2.62  16.5     0     1     4     4
## 2 Mazda RX4 W…  21       6   160   110  3.9   2.88  17.0     0     1     4     4
## 3 Datsun 710    22.8     4   108    93  3.85  2.32  18.6     1     1     4     1
## # ℹ 29 more rows

함수 rename()을 사용하면 이름이 변경되지 않은 변수도 모두 그대로 유지가 된다. 변수에 새로운 이름을 주는 방식은 함수 select()와 동일하게 new_name = old_name이다.

mtcars_t |> 
  rename(model = row.name) |> 
  print(n = 3)
## # A tibble: 32 × 12
##   model          mpg   cyl  disp    hp  drat    wt  qsec    vs    am  gear  carb
##   <chr>        <dbl> <dbl> <dbl> <dbl> <dbl> <dbl> <dbl> <dbl> <dbl> <dbl> <dbl>
## 1 Mazda RX4     21       6   160   110  3.9   2.62  16.5     0     1     4     4
## 2 Mazda RX4 W…  21       6   160   110  3.9   2.88  17.0     0     1     4     4
## 3 Datsun 710    22.8     4   108    93  3.85  2.32  18.6     1     1     4     1
## # ℹ 29 more rows

많은 변수의 이름을 어떤 공통된 양식에 따라 모두 바꿔야 하는 경우, 하나씩 new_name = old_name으로 변경하는 방식은 매우 비효율적이 될 수 있다. 예컨대 대문자로 입력된 변수 이름을 모두 소문자로 변경하거나, 이름 중간에 들어간 점(.)을 밑줄(_)로 변경해야 하는 경우에 하나씩 변경하는 방식이 아닌 해당되는 변수의 이름을 한꺼번에 모두 바꿀 수 있는 방식이 필요한 것이다. 이러한 작업은 함수 rename_with()로 할 수 있다.

데이터 프레임 mtcars_t의 모든 변수 이름을 대문자로 변경해 보자.
함수 rename_with()에는 기존의 변수 이름을 새로운 이름으로 바꿀 수 있는 함수를 지정해야 한다.
모든 변수를 대문자로 변경하는 작업이므로 함수 toupper()를 사용하면 되는데,
하나의 함수만을 사용하는 경우에는 함수 이름을 입력하면 된다.

mtcars_t |>  
  rename_with(toupper) |>  
  print(n = 3)
## # A tibble: 32 × 12
##   ROW.NAME       MPG   CYL  DISP    HP  DRAT    WT  QSEC    VS    AM  GEAR  CARB
##   <chr>        <dbl> <dbl> <dbl> <dbl> <dbl> <dbl> <dbl> <dbl> <dbl> <dbl> <dbl>
## 1 Mazda RX4     21       6   160   110  3.9   2.62  16.5     0     1     4     4
## 2 Mazda RX4 W…  21       6   160   110  3.9   2.88  17.0     0     1     4     4
## 3 Datsun 710    22.8     4   108    93  3.85  2.32  18.6     1     1     4     1
## # ℹ 29 more rows

모든 변수가 이름 변경 대상이 되는 것이 디폴트이다. 변경 대상 변수를 선택을 해야 하는 경우에는 함수 select()에서 사용했던 <tidy-select>의 방식으로 선택하여 함수 rename_with()의 세 번째 입력요소로 지정하면 된다. 이름에 a가 포함되어 있는 변수의 이름을 대문자로 바꾸어 보자.

mtcars_t |>  
  rename_with(toupper, contains("a")) |>  
  print(n = 3)
## # A tibble: 32 × 12
##   ROW.NAME       mpg   cyl  disp    hp  DRAT    wt  qsec    vs    AM  GEAR  CARB
##   <chr>        <dbl> <dbl> <dbl> <dbl> <dbl> <dbl> <dbl> <dbl> <dbl> <dbl> <dbl>
## 1 Mazda RX4     21       6   160   110  3.9   2.62  16.5     0     1     4     4
## 2 Mazda RX4 W…  21       6   160   110  3.9   2.88  17.0     0     1     4     4
## 3 Datsun 710    22.8     4   108    93  3.85  2.32  18.6     1     1     4     1
## # ℹ 29 more rows

데이터 프레임 iris의 변수 이름에는 점(.)이 포함되어 있고, 대문자도 있다.
먼저 변수 이름에 있는 점을 밑줄로 바꿔보자.
특정 문자의 치환은 함수 gsub()로 할 수 있는데,
메타 문자인 점(.)을 치환해야 하기 때문에 옵션 fixed = TRUE를 포함해야 한다.
따라서 함수 rename_with()에 입력되는 이름 변경을 위한 함수는 purrr 형태를 취하게 된다.

iris |>  
  as_tibble() |>  
  rename_with(~ gsub(".", "_", .x, fixed = TRUE)) |> 
  print(n = 3)
## # A tibble: 150 × 5
##   Sepal_Length Sepal_Width Petal_Length Petal_Width Species
##          <dbl>       <dbl>        <dbl>       <dbl> <fct>  
## 1          5.1         3.5          1.4         0.2 setosa 
## 2          4.9         3            1.4         0.2 setosa 
## 3          4.7         3.2          1.3         0.2 setosa 
## # ℹ 147 more rows

이번에는 점을 밑줄로 바꾸고, 이름에는 있는 대문자를 모두 소문자로 바꾸어 보자.

iris |>  
  as_tibble() |>  
  rename_with(~ tolower(gsub(".", "_", .x, fixed = TRUE))) |>               
  print(n = 3)
## # A tibble: 150 × 5
##   sepal_length sepal_width petal_length petal_width species
##          <dbl>       <dbl>        <dbl>       <dbl> <fct>  
## 1          5.1         3.5          1.4         0.2 setosa 
## 2          4.9         3            1.4         0.2 setosa 
## 3          4.7         3.2          1.3         0.2 setosa 
## # ℹ 147 more rows

함수 안에서도 pipe 연산자의 사용이 가능한데, 위 예제는 다음과 같이 작성할 수 있다.

iris |> 
  as_tibble() |> 
  rename_with(~ gsub(".", "_", .x, fixed = TRUE) |> 
                tolower()
              ) |> 
  print(n = 3)
## # A tibble: 150 × 5
##   sepal_length sepal_width petal_length petal_width species
##          <dbl>       <dbl>        <dbl>       <dbl> <fct>  
## 1          5.1         3.5          1.4         0.2 setosa 
## 2          4.9         3            1.4         0.2 setosa 
## 3          4.7         3.2          1.3         0.2 setosa 
## # ℹ 147 more rows

4.2.3 열의 위치 변경: relocate()

열의 위치를 변경해야 하는 경우에 사용할 수 있는 함수이다. 위치를 바꿀 열은 <tidy-select> 방식을 사용하여 선택할 수 있어서, 여러 열의 위치를 한꺼번에 옮길 수 있다. 제일 앞으로 이동되는 것이 디폴트 위치이며 옵션 .after 혹은 .before에서 위치를 지정할 수 있다.

데이터 프레임 iris의 마지막 변수 Species를 첫 번째 위치로 이동해 보자.

iris_t <- as_tibble(iris)

iris_t |>  
  relocate(Species) |>  
  print(n = 3)
## # A tibble: 150 × 5
##   Species Sepal.Length Sepal.Width Petal.Length Petal.Width
##   <fct>          <dbl>       <dbl>        <dbl>       <dbl>
## 1 setosa           5.1         3.5          1.4         0.2
## 2 setosa           4.9         3            1.4         0.2
## 3 setosa           4.7         3.2          1.3         0.2
## # ℹ 147 more rows

다른 방법으로 이름이 th로 끝나는 변수를 모두 Species 다음으로 이동하면 변수 Species를 첫 번째 위치로 이동하는 것이 된다.

iris_t |>  
  relocate(ends_with("th"), .after = Species) |>  
  print(n = 3)
## # A tibble: 150 × 5
##   Species Sepal.Length Sepal.Width Petal.Length Petal.Width
##   <fct>          <dbl>       <dbl>        <dbl>       <dbl>
## 1 setosa           5.1         3.5          1.4         0.2
## 2 setosa           4.9         3            1.4         0.2
## 3 setosa           4.7         3.2          1.3         0.2
## # ℹ 147 more rows

또 다른 방법으로 이름이 th로 끝나는 변수를 마지막 변수 다음으로 이동하면 변수 Species를 첫 번째 위치로 이동하는 것이 된다.

iris_t |>  
  relocate(ends_with("th"), .after = last_col()) |>  
  print(n = 3)
## # A tibble: 150 × 5
##   Species Sepal.Length Sepal.Width Petal.Length Petal.Width
##   <fct>          <dbl>       <dbl>        <dbl>       <dbl>
## 1 setosa           5.1         3.5          1.4         0.2
## 2 setosa           4.9         3            1.4         0.2
## 3 setosa           4.7         3.2          1.3         0.2
## # ℹ 147 more rows

특정 변수를 제일 앞으로 이동하는 작업은 함수 select()에 everything()을 함께 사용해서 할 수도 있다.

iris_t |>  
  select(Species, everything()) |>  
  print(n = 3)
## # A tibble: 150 × 5
##   Species Sepal.Length Sepal.Width Petal.Length Petal.Width
##   <fct>          <dbl>       <dbl>        <dbl>       <dbl>
## 1 setosa           5.1         3.5          1.4         0.2
## 2 setosa           4.9         3            1.4         0.2
## 3 setosa           4.7         3.2          1.3         0.2
## # ℹ 147 more rows
…
연속형 변수 kml을 기반으로 범주의 개수가 두 개인 범주형 변수 gp_kml를 생성하는 작업은 함수 if_else()를 사용하는 것이 효과적이다. 기본적인 사용법은 if_else(condition, true, false)이며 condition이 만족되면 true의 값을 갖고, 아니면 false의 값을 갖게 된다.
예를 들어 벡터 x의 숫자가 0 미만인지 0 이상인지에 따라 다음의 문자형 벡터를 생성할 수 있다.

x <- -1:1
if_else(x < 0, "Negative", "Greater than 0")
## [1] "Negative"       "Greater than 0" "Greater than 0"

이제 변수 kml을 만들고, 조건에 따라 변수 gp_kml도 생성해 보자.

as_tibble(mtcars) |>  
  mutate(kml = 0.43*mpg,
         gp_kml = if_else(kml >= 10, "good", "bad"),
         .before = 1) |>  
  print(n=3)
## # A tibble: 32 × 13
##     kml gp_kml   mpg   cyl  disp    hp  drat    wt  qsec    vs    am  gear  carb
##   <dbl> <chr>  <dbl> <dbl> <dbl> <dbl> <dbl> <dbl> <dbl> <dbl> <dbl> <dbl> <dbl>
## 1  9.03 bad     21       6   160   110  3.9   2.62  16.5     0     1     4     4
## 2  9.03 bad     21       6   160   110  3.9   2.88  17.0     0     1     4     4
## 3  9.80 bad     22.8     4   108    93  3.85  2.32  18.6     1     1     4     1
## # ℹ 29 more rows
…
