2 장 R 데이터 구조 | R과 통계분석
…
z.Temp <- with(airquality, (Temp - mean(Temp))/sd(Temp))

2.6 tibble: 개선된 형태의 데이터 프레임

tibble은 tidyverse에 속한 패키지들이 공통적으로 사용하는 개선된 형태의 데이터 프레임이다. 기존의 데이터 프레임에 몇 가지 기능을 추가함으로써 조금 더 사용하기 편리한 형태를 취하고 있다. tibble과 관련된 작업을 하기 위해서는 패키지 tibble을 불러와야 하는데, Core tidyverse에 속한 패키지이므로 library(tidyverse)를 실행하면 다른 core tidyverse패키지들과 함께 세션에 올라오게 된다.

library(tidyverse)

2.6.1 tibble 생성

기존의 전통적인 데이터 프레임을 tibble로 전환하기 위해서는 함수 as_tibble()을 사용하면 된다.

as_tibble(cars)
## # A tibble: 50 × 2
##    speed  dist
##    <dbl> <dbl>
##  1     4     2
##  2     4    10
##  3     7     4
##  4     7    22
##  5     8    16
##  6     9    10
##  7    10    18
##  8    10    26
##  9    10    34
## 10    11    17
## # ℹ 40 more rows
…
2.6.2 tibble과 전통적인 데이터 프레임의 차이

Tibble과 전통적인 데이터 프레임은 출력 방식과 자료의 부분을 선택하는 인덱싱 방식에서 차이가 있으며 행 이름(row name)를 다루는 방식에서도 차이가 있다.

출력 방식의 차이

먼저 출력 방식에서 보면 전통적인 데이터 프레임은 대규모 데이터를 대상으로 하는 경우에 불편한 측면이 있다. 전통적 데이터 프레임은 가능한 모든 자료를 화면에 출력하게 되어 있는데, 이런 출력 방식은 대규모 자료의 경우 내용을 확인하기 매우 어려운 측면이 있다. 이에 반하여 tibble은 처음 10개 케이스만을 출력하며, 변수도 화면의 크기에 따라 출력되는 개수를 조절하여, 한 화면에서 자료의 특성을 비교적 편하게 확인할 수 있다.

패키지 MASS에 있는 데이터 프레임 Cars93는 1993년 미국에서 판매된 93 종류 자동차에 대한 자료이며, 전통적 데이터 프레임이다.
데이터 프레임 Cars93를 불러와 보자.
패키지에 있는 특정 데이터만 불러오는 경우에는 함수 library()로 패키지의 모든 내용을 다 불러오는 것보다 함수 data()를 사용하는 것이 더 효과적이다.

data(Cars93, package = "MASS")
as_tibble(Cars93)
## # A tibble: 93 × 27
##    Manufacturer Model      Type   Min.Price Price Max.Price MPG.city MPG.highway
##    <fct>        <fct>      <fct>      <dbl> <dbl>     <dbl>    <int>       <int>
##  1 Acura        Integra    Small       12.9  15.9      18.8       25          31
##  2 Acura        Legend     Midsi…      29.2  33.9      38.7       18          25
##  3 Audi         90         Compa…      25.9  29.1      32.3       20          26
##  4 Audi         100        Midsi…      30.8  37.7      44.6       19          26
##  5 BMW          535i       Midsi…      23.7  30        36.2       22          30
##  6 Buick        Century    Midsi…      14.2  15.7      17.3       22          31
##  7 Buick        LeSabre    Large       19.9  20.8      21.7       19          28
##  8 Buick        Roadmaster Large       22.6  23.7      24.9       16          25
##  9 Buick        Riviera    Midsi…      26.3  26.3      26.3       19          27
## 10 Cadillac     DeVille    Large       33    34.7      36.3       16          25
## # ℹ 83 more rows
## # ℹ 19 more variables: AirBags <fct>, DriveTrain <fct>, Cylinders <fct>,
## #   EngineSize <dbl>, Horsepower <int>, RPM <int>, Rev.per.mile <int>,
## #   Man.trans.avail <fct>, Fuel.tank.capacity <dbl>, Passengers <int>,
## #   Length <int>, Wheelbase <int>, Width <int>, Turn.circle <int>,
## #   Rear.seat.room <dbl>, Luggage.room <int>, Weight <int>, Origin <fct>,
## #   Make <fct>
…
자료가 출력될 때 전통적인 데이터 프레임의 경우에는 행 이름이 함께 출력되지만, tibble에서는 생략된다. 데이터 프레임 mtcars를 출력해 보자.

head(mtcars)
##                    mpg cyl disp  hp drat    wt  qsec vs am gear carb
## Mazda RX4         21.0   6  160 110 3.90 2.620 16.46  0  1    4    4
## Mazda RX4 Wag     21.0   6  160 110 3.90 2.875 17.02  0  1    4    4
## Datsun 710        22.8   4  108  93 3.85 2.320 18.61  1  1    4    1
## Hornet 4 Drive    21.4   6  258 110 3.08 3.215 19.44  1  0    3    1
## Hornet Sportabout 18.7   8  360 175 3.15 3.440 17.02  0  0    3    2
## Valiant           18.1   6  225 105 2.76 3.460 20.22  1  0    3    1

mtcars_t <- as_tibble(mtcars)
print(mtcars_t, n = 6)
## # A tibble: 32 × 11
##     mpg   cyl  disp    hp  drat    wt  qsec    vs    am  gear  carb
##   <dbl> <dbl> <dbl> <dbl> <dbl> <dbl> <dbl> <dbl> <dbl> <dbl> <dbl>
## 1  21       6   160   110  3.9   2.62  16.5     0     1     4     4
## 2  21       6   160   110  3.9   2.88  17.0     0     1     4     4
## 3  22.8     4   108    93  3.85  2.32  18.6     1     1     4     1
## 4  21.4     6   258   110  3.08  3.22  19.4     1     0     3     1
## 5  18.7     8   360   175  3.15  3.44  17.0     0     0     3     2
## 6  18.1     6   225   105  2.76  3.46  20.2     1     0     3     1
## # ℹ 26 more rows

생략된 행 이름은 함수 rownames_to_column()을 사용하면 변수로 전환할 수 있으며, 변수 이름은 var=에 지정하면 된다.

mtcars_d <- rownames_to_column(mtcars, var = "rowname")
mtcars_t <- as_tibble(mtcars_d)

mtcars_t
## # A tibble: 32 × 12
##    rowname       mpg   cyl  disp    hp  drat    wt  qsec    vs    am  gear  carb
##    <chr>       <dbl> <dbl> <dbl> <dbl> <dbl> <dbl> <dbl> <dbl> <dbl> <dbl> <dbl>
##  1 Mazda RX4    21       6  160    110  3.9   2.62  16.5     0     1     4     4
##  2 Mazda RX4 …  21       6  160    110  3.9   2.88  17.0     0     1     4     4
##  3 Datsun 710   22.8     4  108     93  3.85  2.32  18.6     1     1     4     1
##  4 Hornet 4 D…  21.4     6  258    110  3.08  3.22  19.4     1     0     3     1
##  5 Hornet Spo…  18.7     8  360    175  3.15  3.44  17.0     0     0     3     2
##  6 Valiant      18.1     6  225    105  2.76  3.46  20.2     1     0     3     1
##  7 Duster 360   14.3     8  360    245  3.21  3.57  15.8     0     0     3     4
##  8 Merc 240D    24.4     4  147.    62  3.69  3.19  20       1     0     4     2
##  9 Merc 230     22.8     4  141.    95  3.92  3.15  22.9     1     0     4     2
## 10 Merc 280     19.2     6  168.   123  3.92  3.44  18.3     1     0     4     4
## # ℹ 22 more rows
…
