Chapter 4 dplyr에 의한 데이터 다듬기 | R과 통계분석
…
예제: airquality

데이터 프레임 airquality는 1973년 5월부터 9월까지 미국 뉴욕시의 공기의 질과 관련된
조사 결과를 담은 데이터 세트이다. airs라는 이름의 tibble로 전환하고, 처음 5개 케이스
를 출력해 보자.

> airs <- as_tibble(airquality) %>% 
+   print(n = 3)
# A tibble: 153 x 6
  Ozone Solar.R  Wind  Temp Month   Day
  <int>   <int> <dbl> <int> <int> <int>
1    41     190   7.4    67     5     1
2    36     118   8      72     5     2
3    12     149  12.6    74     5     3
# ... with 150 more rows

변수 Ozone 또는 Solar.R이 결측값인 행을 선택해 보자. 결측값의 확인은 함수
is.na()로 할 수 있다.

> airs %>% 
+   filter(is.na(Ozone) | is.na(Solar.R)) %>% 
+   print(n = 5)
# A tibble: 42 x 6
  Ozone Solar.R  Wind  Temp Month   Day
  <int>   <int> <dbl> <int> <int> <int>
1    NA      NA  14.3    56     5     5
2    28      NA  14.9    66     5     6
3    NA     194   8.6    69     5    10
4     7      NA   6.9    74     5    11
5    NA      66  16.6    57     5    25
# ... with 37 more rows
…
이번에는 5번째 행부터 10번째 행을 제거해 보자.

> iris_t %>% 
+   slice(-(5:10)) %>% 
+   print(n = 3)
# A tibble: 144 x 5
  Sepal.Length Sepal.Width Petal.Length Petal.Width Species
         <dbl>       <dbl>        <dbl>       <dbl> <fct>  
1          5.1         3.5          1.4         0.2 setosa 
2          4.9         3            1.4         0.2 setosa 
3          4.7         3.2          1.3         0.2 setosa 
# ... with 141 more rows
…
함수 arrange()는 특정 변수를 기준으로 데이터 프레임의 행을 재배열할 때 사용된다.
함수에는 정렬의 기준이 되는 변수를 입력하면 되는데, 2개 이상의 정렬 기준 변수를 입력하게 되면 추가된 변수는 앞선 변수가 같은 값을 갖는 행들의 정렬 기준으로 사용된다.
정렬은 오름차순이 디폴트이며, 내림차순으로 배열하고자 할 때에는 기준 변수를
함수 desc()와 함께 사용해야 한다.

예제: mtcars

데이터 프레임 mtcars를 tibble로 전환하고 변수 mpg의 값이 좋지 않은 자동차 순서로
다시 배열해 보자. 연비가 좋지 않다는 것은 연비가 낮다는 것을 의미하는 것이므로 변수
mpg를 오름차순 정렬 변수로 사용하면 된다.

> mtcars_t <- as_tibble(mtcars)
> mtcars_t %>% 
+   arrange(mpg)
# A tibble: 32 x 11
     mpg   cyl  disp    hp  drat    wt  qsec    vs    am  gear  carb
   <dbl> <dbl> <dbl> <dbl> <dbl> <dbl> <dbl> <dbl> <dbl> <dbl> <dbl>
 1  10.4     8  472    205  2.93  5.25  18.0     0     0     3     4
 2  10.4     8  460    215  3     5.42  17.8     0     0     3     4
 3  13.3     8  350    245  3.73  3.84  15.4     0     0     3     4
 4  14.3     8  360    245  3.21  3.57  15.8     0     0     3     4
 5  14.7     8  440    230  3.23  5.34  17.4     0     0     3     4
 6  15       8  301    335  3.54  3.57  14.6     0     1     5     8
 7  15.2     8  276.   180  3.07  3.78  18       0     0     3     3
 8  15.2     8  304    150  3.15  3.44  17.3     0     0     3     2
 9  15.5     8  318    150  2.76  3.52  16.9     0     0     3     2
10  15.8     8  351    264  4.22  3.17  14.5     0     1     5     4
# ... with 22 more rows

데이터 프레임 mtcars_t를 변수 mpg의 값이 좋지 않은 자동차 순서로 다시 배열을
하되, mpg 값이 같은 자동차의 경우에는 변수 wt의 값이 높은 자동차부터 배열해 보자.
변수 wt를 두 번째 정렬 기준 변수로 입력하되, 내림차순 정렬이 필요하므로 함수 desc()를
이용한다.

> mtcars_t %>% 
+   arrange(mpg, desc(wt))
# A tibble: 32 x 11
     mpg   cyl  disp    hp  drat    wt  qsec    vs    am  gear  carb
   <dbl> <dbl> <dbl> <dbl> <dbl> <dbl> <dbl> <dbl> <dbl> <dbl> <dbl>
 1  10.4     8  460    215  3     5.42  17.8     0     0     3     4
 2  10.4     8  472    205  2.93  5.25  18.0     0     0     3     4
 3  13.3     8  350    245  3.73  3.84  15.4     0     0     3     4
 4  14.3     8  360    245  3.21  3.57  15.8     0     0     3     4
 5  14.7     8  440    230  3.23  5.34  17.4     0     0     3     4
 6  15       8  301    335  3.54  3.57  14.6     0     1     5     8
 7  15.2     8  276.   180  3.07  3.78  18       0     0     3     3
 8  15.2     8  304    150  3.15  3.44  17.3     0     0     3     2
 9  15.5     8  318    150  2.76  3.52  16.9     0     0     3     2
10  15.8     8  351    264  4.22  3.17  14.5     0     1     5     4
# ... with 22 more rows
…
열 번호(또는 열 이름)에 의한 선택

가장 기본적인 방법은 열 번호를 콤마로 구분하여 나열하는 것이다. 이렇게 나열된 열들은 차례로 합집합을 구성하여 포함된 모든 열을 선택하게 된다.
연속된 열 변호는 콜론(:) 연산자를 이용해서 나타낼 수 있다.

예제로서 데이터 프레임 mtcars의 행 이름을 변수 row.name으로 추가하고 tibble로 전환해 보자.

> mtcars_t <- mtcars %>% 
+   rownames_to_column(var = "row.name") %>% 
+   as_tibble() %>% 
+   print(n = 3)
# A tibble: 32 x 12
  row.name       mpg   cyl  disp    hp  drat    wt  qsec    vs    am  gear  carb
  <chr>        <dbl> <dbl> <dbl> <dbl> <dbl> <dbl> <dbl> <dbl> <dbl> <dbl> <dbl>
1 Mazda RX4     21       6   160   110  3.9   2.62  16.5     0     1     4     4
2 Mazda RX4 W~  21       6   160   110  3.9   2.88  17.0     0     1     4     4
3 Datsun 710    22.8     4   108    93  3.85  2.32  18.6     1     1     4     1
# ... with 29 more rows

이어서 첫 번째에서 세 번째 변수, 그리고 일곱 번째 변수를 선택해 보자. 이 경우에는
열 번호를 함수 c() 없이 그냥 나열해도 결과는 동일하다.

> mtcars_t %>% 
+   select(1:3, 7)
# A tibble: 32 x 4
   row.name            mpg   cyl    wt
   <chr>             <dbl> <dbl> <dbl>
 1 Mazda RX4          21       6  2.62
 2 Mazda RX4 Wag      21       6  2.88
 3 Datsun 710         22.8     4  2.32
 4 Hornet 4 Drive     21.4     6  3.22
 5 Hornet Sportabout  18.7     8  3.44
 6 Valiant            18.1     6  3.46
 7 Duster 360         14.3     8  3.57
 8 Merc 240D          24.4     4  3.19
 9 Merc 230           22.8     4  3.15
10 Merc 280           19.2     6  3.44
# ... with 22 more rows

열(변수) 이름은 열 번호와 같은 취급을 받는다. 따라서 다음 방법도 같은 결과를 생성한다.

> mtcars_t %>% 
+   select(row.name:cyl, wt)
# A tibble: 32 x 4
   row.name            mpg   cyl    wt
   <chr>             <dbl> <dbl> <dbl>
 1 Mazda RX4          21       6  2.62
 2 Mazda RX4 Wag      21       6  2.88
 3 Datsun 710         22.8     4  2.32
 4 Hornet 4 Drive     21.4     6  3.22
 5 Hornet Sportabout  18.7     8  3.44
 6 Valiant            18.1     6  3.46
 7 Duster 360         14.3     8  3.57
 8 Merc 240D          24.4     4  3.19
 9 Merc 230           22.8     4  3.15
10 Merc 280           19.2     6  3.44
# ... with 22 more rows

열을 제거하고자 하는 경우에는 논리 부정 연산자(!) 또는 마이너스(-) 연산자를 사용해야
한다. 함수 c() 안에 제거하고자 하는 열 번호를 나열하고 논리 부정 연산자를 그 앞에 붙이면 나열된 열로 이루어진 집합의 여집합을 구성하는 것이므로 결과적으로 해당되는 열들이 제거되는 것이다. 첫 번째에서 세 번째 변수, 그리고 일곱 번째 변수를 제거해 보자.

> mtcars_t %>% 
+   select(!c(1:3, 7))
# A tibble: 32 x 8
    disp    hp  drat  qsec    vs    am  gear  carb
   <dbl> <dbl> <dbl> <dbl> <dbl> <dbl> <dbl> <dbl>
 1  160    110  3.9   16.5     0     1     4     4
 2  160    110  3.9   17.0     0     1     4     4
 3  108     93  3.85  18.6     1     1     4     1
 4  258    110  3.08  19.4     1     0     3     1
 5  360    175  3.15  17.0     0     0     3     2
 6  225    105  2.76  20.2     1     0     3     1
 7  360    245  3.21  15.8     0     0     3     4
 8  147.    62  3.69  20       1     0     4     2
 9  141.    95  3.92  22.9     1     0     4     2
10  168.   123  3.92  18.3     1     0     4     4
# ... with 22 more rows

마이너스 연산자는 차집합을 구성하게 된다. 예컨대 select(1:4, -1)은 처음 네 변수
중 첫 번째 변수를 제거하라는 의미가 된다. 그러나 만일 select(1:4, !1)과 같이 논리
부정 연산자를 대신 사용하면 처음 네 변수와 첫 번째 변수를 제외한 나머지 변수와의 합
집합을 구성하는 것이 되어서 결국 모든 변수를 다 선택하게 된다.

비록 두 연산자의 의미는 다르지만, 마이너스 연산자가 첫 번째로 입력되면 같은 효과를
볼 수 있다. 따라서 첫 번째에서 세 번째 변수, 그리고 일곱 번째 변수의 제거는 다음과 같이 할 수도 있다.

> mtcars_t %>% 
+   select(-c(1:3, 7))
# A tibble: 32 x 8
    disp    hp  drat  qsec    vs    am  gear  carb
   <dbl> <dbl> <dbl> <dbl> <dbl> <dbl> <dbl> <dbl>
 1  160    110  3.9   16.5     0     1     4     4
 2  160    110  3.9   17.0     0     1     4     4
 3  108     93  3.85  18.6     1     1     4     1
 4  258    110  3.08  19.4     1     0     3     1
 5  360    175  3.15  17.0     0     0     3     2
 6  225    105  2.76  20.2     1     0     3     1
 7  360    245  3.21  15.8     0     0     3     4
 8  147.    62  3.69  20       1     0     4     2
 9  141.    95  3.92  22.9     1     0     4     2
10  168.   123  3.92  18.3     1     0     4     4
# ... with 22 more rows

변수 유형에 의한 선택

특정 유형의 변수를 선택해야 하는 경우 유용하게 사용할 수 있는 방법이다.
변수의 유형 파악은 함수 is.numeric() 또는 is.character() 등 is.*() 형태의 함수로 할 수 있다.
이러한 함수들은 결과가 TRUE 또는 FALSE 중 하나가 되는데, 이런 함수를 predicate 함수라고 한다. 변수 유형에 의한 선택이란 함수 where() 안에 특정 predicate 함수를 입력해서 그 결과가 TRUE가 되는 변수를 선택하는 방법이다.

패키지 ggplot2의 데이터 프레임 mpg를 살펴보자.

> mpg %>% print(n = 3)
# A tibble: 234 x 11
  manufacturer model displ  year   cyl trans      drv     cty   hwy fl    class 
  <chr>        <chr> <dbl> <int> <int> <chr>      <chr> <int> <int> <chr> <chr> 
1 audi         a4      1.8  1999     4 auto(l5)   f        18    29 p     compa~
2 audi         a4      1.8  1999     4 manual(m5) f        21    29 p     compa~
3 audi         a4      2    2008     4 manual(m6) f        20    31 p     compa~
# ... with 231 more rows

데이터 프레임 mpg에서 숫자형 변수만 선택해 보자.

> mpg %>% 
+   select(where(is.numeric))
# A tibble: 234 x 5
   displ  year   cyl   cty   hwy
   <dbl> <int> <int> <int> <int>
 1   1.8  1999     4    18    29
 2   1.8  1999     4    21    29
 3   2    2008     4    20    31
 4   2    2008     4    21    30
 5   2.8  1999     6    16    26
 6   2.8  1999     6    18    26
 7   3.1  2008     6    18    27
 8   1.8  1999     4    18    26
 9   1.8  1999     4    16    25
10   2    2008     4    20    28
# ... with 224 more rows

몇 가지 변수 유형을 함께 고려해야 하는 경우에는 논리 연산자 &와 |을 사용하게 된다.

예를 들어 숫자형 변수이거나 문자형 변수의 선택은 다음과 같다.

> mpg %>% 
+   select(where(is.numeric) | where(is.character))
# A tibble: 234 x 11
   displ  year   cyl   cty   hwy manufacturer model      trans drv   fl    class
   <dbl> <int> <int> <int> <int> <chr>        <chr>      <chr> <chr> <chr> <chr>
 1   1.8  1999     4    18    29 audi         a4         auto~ f     p     comp~
 2   1.8  1999     4    21    29 audi         a4         manu~ f     p     comp~
 3   2    2008     4    20    31 audi         a4         manu~ f     p     comp~
 4   2    2008     4    21    30 audi         a4         auto~ f     p     comp~
 5   2.8  1999     6    16    26 audi         a4         auto~ f     p     comp~
 6   2.8  1999     6    18    26 audi         a4         manu~ f     p     comp~
 7   3.1  2008     6    18    27 audi         a4         auto~ f     p     comp~
 8   1.8  1999     4    18    26 audi         a4 quattro manu~ 4     p     comp~
 9   1.8  1999     4    16    25 audi         a4 quattro auto~ 4     p     comp~
10   2    2008     4    20    28 audi         a4 quattro manu~ 4     p     comp~
# ... with 224 more rows
…
num_range("x", 1:10): x1, x2, … , x10과 동일

변수 이름이 입력된 문자형 벡터를 이용하여 변수를 선택할 때 사용할 수 있는 함수들
이다.

all_of(vec): 문자형 벡터 vec에 이름이 입력된 변수 선택. 해당 데이터 프레임에 없는 변수 이름이 vec에 입력되어 있으면 오류 발생.

any_of(vec): 함수 all_of()와 동일함. 단, 데이터 프레임에 없는 변수 이름이 입력
되어도 오류가 발생하지 않음.

예제로 데이터 프레임 mtcars_t에서 첫 번째 변수와 마지막 변수를 선택해 보자.

> mtcars_t %>% 
+   select(1, last_col())
# A tibble: 32 x 2
   row.name           carb
   <chr>             <dbl>
 1 Mazda RX4             4
 2 Mazda RX4 Wag         4
 3 Datsun 710            1
 4 Hornet 4 Drive        1
 5 Hornet Sportabout     2
 6 Valiant               1
 7 Duster 360            4
 8 Merc 240D             2
 9 Merc 230              2
10 Merc 280              4
# ... with 22 more rows

이번에는 mtcars_t에서 이름이 m으로 시작하는 변수를 선택해 보자.

> mtcars_t %>% 
+   select(starts_with("m"))
# A tibble: 32 x 1
     mpg
   <dbl>
 1  21  
 2  21  
 3  22.8
 4  21.4
 5  18.7
 6  18.1
 7  14.3
 8  24.4
 9  22.8
10  19.2
# ... with 22 more rows

이름이 p로 끝나는 변수도 선택해 보자.

> mtcars_t %>% 
+   select(ends_with("p"))
# A tibble: 32 x 2
    disp    hp
   <dbl> <dbl>
 1  160    110
 2  160    110
 3  108     93
 4  258    110
 5  360    175
 6  225    105
 7  360    245
 8  147.    62
 9  141.    95
10  168.   123
# ... with 22 more rows

이름에 A가 있는 변수를 선택해 보자.

> mtcars_t %>% 
+   select(contains("A"))
# A tibble: 32 x 5
   row.name           drat    am  gear  carb
   <chr>             <dbl> <dbl> <dbl> <dbl>
 1 Mazda RX4          3.9      1     4     4
 2 Mazda RX4 Wag      3.9      1     4     4
 3 Datsun 710         3.85     1     4     1
 4 Hornet 4 Drive     3.08     0     3     1
 5 Hornet Sportabout  3.15     0     3     2
 6 Valiant            2.76     0     3     1
 7 Duster 360         3.21     0     3     4
 8 Merc 240D          3.69     0     4     2
 9 Merc 230           3.92     0     4     2
10 Merc 280           3.92     0     4     4
# ... with 22 more rows
…
> mtcars_t %>% 
+   select(contains("A", ignore.case = FALSE))
# A tibble: 32 x 0

문자형 벡터 vars에 다음과 같이 변수 이름을 입력해 보자. 앞에서 생성된 데이터 프레임 mtcars_t에는 변수 mpg와 wt는 있지만, 변수 model은 없는 상태이다.

> vars <- c("model", "mpg", "wt")

함수 any_of()를 사용하면 mtcars_t에 있는 두 변수가 선택된다.

> mtcars_t %>% 
+   select(any_of(vars))
# A tibble: 32 x 2
     mpg    wt
   <dbl> <dbl>
 1  21    2.62
 2  21    2.88
 3  22.8  2.32
 4  21.4  3.22
 5  18.7  3.44
 6  18.1  3.46
 7  14.3  3.57
 8  24.4  3.19
 9  22.8  3.15
10  19.2  3.44
# ... with 22 more rows

함수 all_of()를 사용하게 되면 model이 mtcars_t에 없는 변수이기 때문에 오류가 발생하게 된다.

> mtcars_t %>% 
+   select(all_of(vars))
Error: Can't subset columns that don't exist.
x Column `model` doesn't exist.

당연한 것이지만, 지금까지 살펴본 세 가지 변수 선택 방법은 서로 혼합해서 사용할 수
있다. 예를 들어 숫자형 변수 중에 이름에 a가 변수는 다음과 같이 선택할 수 있다.

> mtcars_t %>% 
+   select(where(is.numeric) & contains("c"))
# A tibble: 32 x 3
     cyl  qsec  carb
   <dbl> <dbl> <dbl>
 1     6  16.5     4
 2     6  17.0     4
 3     4  18.6     1
 4     6  19.4     1
 5     8  17.0     2
 6     6  20.2     1
 7     8  15.8     4
 8     4  20       2
 9     4  22.9     2
10     6  18.3     4
# ... with 22 more rows
…
> mtcars_t %>% pull(var = am)
 [1] 1 1 1 0 0 0 0 0 0 0 0 0 0 0 0 0 0 1 1 1 0 0 0 0 0 1 1 1 1 1 1 1

4.2.2 열 이름 변경: rename()과 rename_with()

변수 이름이 매우 복잡하거나 사용하기 불편해서 이름을 변경해야 하는 경우가 많다. 함수
select()로도 변수 이름을 변경할 수 있으나, 함수 내에서 이름이 명시되지 않은 변수는
선택되지 않은 변수가 되어 제거되고, 이름이 변경된 변수만 남게 된다.
변수에 새로운 이름을 주는 방식은 new_name = old_name이 되는데, old_name 자리에는 변수 이름 또는 변수의 열 번호가 올 수 있다.

> mtcars_t %>% 
+   select(model = row.name)
# A tibble: 32 x 1
   model            
   <chr>            
 1 Mazda RX4        
 2 Mazda RX4 Wag    
 3 Datsun 710       
 4 Hornet 4 Drive   
 5 Hornet Sportabout
 6 Valiant          
 7 Duster 360       
 8 Merc 240D        
 9 Merc 230         
10 Merc 280         
# ... with 22 more rows

> mtcars_t %>% 
+   select(model = 1)
# A tibble: 32 x 1
   model            
   <chr>            
 1 Mazda RX4        
 2 Mazda RX4 Wag    
 3 Datsun 710       
 4 Hornet 4 Drive   
 5 Hornet Sportabout
 6 Valiant          
 7 Duster 360       
 8 Merc 240D        
 9 Merc 230         
10 Merc 280         
# ... with 22 more rows

함수 select()에서 이름이 변경되지 않은 변수도 모두 그대로 유지하려면 함수 everything()을 함께 사용하면 된다.

> mtcars_t %>% 
+   select(model = row.name, everything())
# A tibble: 32 x 12
   model         mpg   cyl  disp    hp  drat    wt  qsec    vs    am  gear  carb
   <chr>       <dbl> <dbl> <dbl> <dbl> <dbl> <dbl> <dbl> <dbl> <dbl> <dbl> <dbl>
 1 Mazda RX4    21       6  160    110  3.9   2.62  16.5     0     1     4     4
 2 Mazda RX4 ~  21       6  160    110  3.9   2.88  17.0     0     1     4     4
 3 Datsun 710   22.8     4  108     93  3.85  2.32  18.6     1     1     4     1
 4 Hornet 4 D~  21.4     6  258    110  3.08  3.22  19.4     1     0     3     1
 5 Hornet Spo~  18.7     8  360    175  3.15  3.44  17.0     0     0     3     2
 6 Valiant      18.1     6  225    105  2.76  3.46  20.2     1     0     3     1
 7 Duster 360   14.3     8  360    245  3.21  3.57  15.8     0     0     3     4
 8 Merc 240D    24.4     4  147.    62  3.69  3.19  20       1     0     4     2
 9 Merc 230     22.8     4  141.    95  3.92  3.15  22.9     1     0     4     2
10 Merc 280     19.2     6  168.   123  3.92  3.44  18.3     1     0     4     4
# ... with 22 more rows

함수 rename()을 사용하면 이름이 변경되지 않은 변수도 모두 그대로 유지가 된다.
변수에 새로운 이름을 주는 방식은 함수 select()와 동일하게 new_name = old_name이다.

> mtcars_t %>% 
+   rename(model = row.name)
# A tibble: 32 x 12
   model         mpg   cyl  disp    hp  drat    wt  qsec    vs    am  gear  carb
   <chr>       <dbl> <dbl> <dbl> <dbl> <dbl> <dbl> <dbl> <dbl> <dbl> <dbl> <dbl>
 1 Mazda RX4    21       6  160    110  3.9   2.62  16.5     0     1     4     4
 2 Mazda RX4 ~  21       6  160    110  3.9   2.88  17.0     0     1     4     4
 3 Datsun 710   22.8     4  108     93  3.85  2.32  18.6     1     1     4     1
 4 Hornet 4 D~  21.4     6  258    110  3.08  3.22  19.4     1     0     3     1
 5 Hornet Spo~  18.7     8  360    175  3.15  3.44  17.0     0     0     3     2
 6 Valiant      18.1     6  225    105  2.76  3.46  20.2     1     0     3     1
 7 Duster 360   14.3     8  360    245  3.21  3.57  15.8     0     0     3     4
 8 Merc 240D    24.4     4  147.    62  3.69  3.19  20       1     0     4     2
 9 Merc 230     22.8     4  141.    95  3.92  3.15  22.9     1     0     4     2
10 Merc 280     19.2     6  168.   123  3.92  3.44  18.3     1     0     4     4
# ... with 22 more rows

많은 변수의 이름을 어떤 공통된 양식에 따라 모두 바꿔야 하는 경우, 하나씩 new_name = old_name으로 변경하는 방식은 매우 비효율적이 될 수 있다. 예컨대 대문자로 입력된
변수 이름을 모두 소문자로 변경하거나, 이름 중간에 들어간 점(.)을 밑줄(_)로 변경해야
하는 경우에 하나씩 변경하는 방식이 아닌 해당되는 변수의 이름을 한꺼번에 모두 바꿀 수
있는 방식이 필요한 것이다. 이러한 작업은 함수 rename_with()로 할 수 있다.

데이터 프레임 mtcars_t의 모든 변수 이름을 대문자로 변경해 보자.
함수 rename_with()에는 기존의 변수 이름을 새로운 이름으로 바꿀 수 있는 함수를
지정해야 한다. 모든 변수를 대문자로 변경하는 작업이므로 함수 toupper()를 사용하면 된다.

> mtcars_t %>% 
+   rename_with(toupper)
# A tibble: 32 x 12
   ROW.NAME      MPG   CYL  DISP    HP  DRAT    WT  QSEC    VS    AM  GEAR  CARB
   <chr>       <dbl> <dbl> <dbl> <dbl> <dbl> <dbl> <dbl> <dbl> <dbl> <dbl> <dbl>
 1 Mazda RX4    21       6  160    110  3.9   2.62  16.5     0     1     4     4
 2 Mazda RX4 ~  21       6  160    110  3.9   2.88  17.0     0     1     4     4
 3 Datsun 710   22.8     4  108     93  3.85  2.32  18.6     1     1     4     1
 4 Hornet 4 D~  21.4     6  258    110  3.08  3.22  19.4     1     0     3     1
 5 Hornet Spo~  18.7     8  360    175  3.15  3.44  17.0     0     0     3     2
 6 Valiant      18.1     6  225    105  2.76  3.46  20.2     1     0     3     1
 7 Duster 360   14.3     8  360    245  3.21  3.57  15.8     0     0     3     4
 8 Merc 240D    24.4     4  147.    62  3.69  3.19  20       1     0     4     2
 9 Merc 230     22.8     4  141.    95  3.92  3.15  22.9     1     0     4     2
10 Merc 280     19.2     6  168.   123  3.92  3.44  18.3     1     0     4     4
# ... with 22 more rows

모든 변수가 이름 변경 대상이 되는 것이 디폴트이다.
변경 대상 변수를 선택을 해야 하는 경우에는 함수 select()에서 사용했던 <tidy-select>의 방식으로 선택하여 함수 rename_with()의 세 번째 입력요소로 지정하면 된다. 이름에 a가 포함되어 있는 변수의 이름을 대문자로 바꾸어 보자.

> mtcars_t %>% 
+   rename_with(toupper, contains("a"))
# A tibble: 32 x 12
   ROW.NAME      mpg   cyl  disp    hp  DRAT    wt  qsec    vs    AM  GEAR  CARB
   <chr>       <dbl> <dbl> <dbl> <dbl> <dbl> <dbl> <dbl> <dbl> <dbl> <dbl> <dbl>
 1 Mazda RX4    21       6  160    110  3.9   2.62  16.5     0     1     4     4
 2 Mazda RX4 ~  21       6  160    110  3.9   2.88  17.0     0     1     4     4
 3 Datsun 710   22.8     4  108     93  3.85  2.32  18.6     1     1     4     1
 4 Hornet 4 D~  21.4     6  258    110  3.08  3.22  19.4     1     0     3     1
 5 Hornet Spo~  18.7     8  360    175  3.15  3.44  17.0     0     0     3     2
 6 Valiant      18.1     6  225    105  2.76  3.46  20.2     1     0     3     1
 7 Duster 360   14.3     8  360    245  3.21  3.57  15.8     0     0     3     4
 8 Merc 240D    24.4     4  147.    62  3.69  3.19  20       1     0     4     2
 9 Merc 230     22.8     4  141.    95  3.92  3.15  22.9     1     0     4     2
10 Merc 280     19.2     6  168.   123  3.92  3.44  18.3     1     0     4     4
# ... with 22 more rows
…
