부록 | R과 통계분석
…
3장

library(rvest)
URL <- "https://en.wikipedia.org/wiki/South_Korea"
Xpath <- '//*[@id="mw-content-text"]/div[1]/table[7]'  # 2024.1.22 시점

tbl_1 <- read_html(URL) |>      # ' |> ' : pipe 연산자. 4장에서 소개됨. 
  html_nodes(xpath=Xpath) |> 
  html_table()

top_company <- tbl_1[[1]] 
names(top_company) <- c("Rank", "Name", "HQ", "Revenue", "Profit", "Assets")

print(top_company, n = 3)
## # A tibble: 15 × 6
##    Rank Name                HQ    Revenue Profit Assets 
##   <dbl> <chr>               <chr> <chr>   <chr>  <chr>  
## 1     1 Samsung Electronics Suwon 173,957 19,316 217,104
## 2     2 Hyundai Motor       Seoul 80,701  4,659  148,092
## 3     3 SK Holdings         Seoul 72,579  659    85.332 
## # ℹ 12 more rows
…
air_2 <- airquality |> 
  anti_join(air_1) |> 
  slice_sample(n = m); air_2
##   Ozone Solar.R Wind Temp Month Day
## 1    NA     194  8.6   69     5  10
## 2   108     223  8.0   85     7  25
## 3   115     223  5.7   79     5  30
## 4    44     236 14.9   81     9  11
## 5    78     197  5.1   92     9   2

car <- as_tibble(MASS::Cars93) |> 
  select(1:2, MPG.highway, Cylinders, Weight, Origin) |> 
  print(n = 3)
## # A tibble: 93 × 6
##   Manufacturer Model   MPG.highway Cylinders Weight Origin 
##   <fct>        <fct>         <int> <fct>      <int> <fct>  
## 1 Acura        Integra          31 4           2705 non-USA
## 2 Acura        Legend           25 6           3560 non-USA
## 3 Audi         90               26 6           3375 non-USA
## # ℹ 90 more rows

car <- car |> 
  mutate(make = paste(Manufacturer, Model), .before = 1) |> 
  select(!c(Manufacturer, Model)) |> 
  print(n = 3)
## # A tibble: 93 × 5
##   make          MPG.highway Cylinders Weight Origin 
##   <chr>               <int> <fct>      <int> <fct>  
## 1 Acura Integra          31 4           2705 non-USA
## 2 Acura Legend           25 6           3560 non-USA
## 3 Audi 90                26 6           3375 non-USA
## # ℹ 90 more rows
…
mpg_1 <- mpg |>
  filter(cyl == 4) |>
  mutate(year = factor(year)) |>
  select(model, year, displ, cty, hwy) |>
  arrange(year, desc(displ), cty) |>
  print(n = 5)
## # A tibble: 81 × 5
##   model             year  displ   cty   hwy
##   <chr>             <fct> <dbl> <int> <int>
## 1 4runner 4wd       1999    2.7    15    20
## 2 toyota tacoma 4wd 1999    2.7    15    20
## 3 4runner 4wd       1999    2.7    16    20
## 4 toyota tacoma 4wd 1999    2.7    16    20
## 5 forester awd      1999    2.5    18    25
## # ℹ 76 more rows
…
6장

top_100 <- billboard |>  
  pivot_longer(
    cols = starts_with("wk"),
    names_to = "week",
    names_prefix = "wk",
    names_transform = list(week = as.integer),
    values_to = "rank",
    values_drop_na = TRUE
    ) |> 
  print(n = 10)
## # A tibble: 5,307 × 5
##    artist  track                   date.entered  week  rank
##    <chr>   <chr>                   <date>       <int> <dbl>
##  1 2 Pac   Baby Don't Cry (Keep... 2000-02-26       1    87
##  2 2 Pac   Baby Don't Cry (Keep... 2000-02-26       2    82
##  3 2 Pac   Baby Don't Cry (Keep... 2000-02-26       3    72
##  4 2 Pac   Baby Don't Cry (Keep... 2000-02-26       4    77
##  5 2 Pac   Baby Don't Cry (Keep... 2000-02-26       5    87
##  6 2 Pac   Baby Don't Cry (Keep... 2000-02-26       6    94
##  7 2 Pac   Baby Don't Cry (Keep... 2000-02-26       7    99
##  8 2Ge+her The Hardest Part Of ... 2000-09-02       1    91
##  9 2Ge+her The Hardest Part Of ... 2000-09-02       2    87
## 10 2Ge+her The Hardest Part Of ... 2000-09-02       3    92
## # ℹ 5,297 more rows

다른 방법

top_100 <- billboard |> 
  pivot_longer(cols = starts_with("wk"),
               names_to = "week",
               values_to = "rank"
               ) |> 
  mutate(week = parse_number(week)) |> 
  drop_na(rank) |> 
  print(n = 10)
## # A tibble: 5,307 × 5
##    artist  track                   date.entered  week  rank
##    <chr>   <chr>                   <date>       <dbl> <dbl>
##  1 2 Pac   Baby Don't Cry (Keep... 2000-02-26       1    87
##  2 2 Pac   Baby Don't Cry (Keep... 2000-02-26       2    82
##  3 2 Pac   Baby Don't Cry (Keep... 2000-02-26       3    72
##  4 2 Pac   Baby Don't Cry (Keep... 2000-02-26       4    77
##  5 2 Pac   Baby Don't Cry (Keep... 2000-02-26       5    87
##  6 2 Pac   Baby Don't Cry (Keep... 2000-02-26       6    94
##  7 2 Pac   Baby Don't Cry (Keep... 2000-02-26       7    99
##  8 2Ge+her The Hardest Part Of ... 2000-09-02       1    91
##  9 2Ge+her The Hardest Part Of ... 2000-09-02       2    87
## 10 2Ge+her The Hardest Part Of ... 2000-09-02       3    92
## # ℹ 5,297 more rows

top_100 |>  
  filter(rank == 1) |> 
  group_by(artist, track) |> 
  filter((max(week) - min(week) + 1) == n()) |> 
  count(sort = TRUE) |> 
  print(n=2)
## # A tibble: 16 × 3
## # Groups:   artist, track [16]
##   artist          track                       n
##   <chr>           <chr>                   <int>
## 1 Destiny's Child Independent Women Pa...    11
## 2 Santana         Maria, Maria               10
## # ℹ 14 more rows
…
