연습문제 해답 | R과 통계분석
…
beta.hat
##        Estimate
## beta_0 4.790317
## beta_1 1.955676

3장

library(readr)
URL <- "http://lib.stat.cmu.edu/datasets/fl2000.txt"
fl2000 <- read_table(URL, comment = "#")

print(fl2000, n = 3)
## # A tibble: 67 × 17
##   `"county"`    `"technology"` `"columns"` `"under"` `"over"` `"Bush"` `"Gore"`
##   <chr>         <chr>                <dbl>     <dbl>    <dbl>    <dbl>    <dbl>
## 1 "\"Alachua\"" "\"Optical\""            1       217      105    34124    47365
## 2 "\"Baker\""   "\"Optical\""            1        79       46     5610     2392
## 3 "\"Bay\""     "\"Optical\""            1       541      141    38637    18850
## # ℹ 64 more rows
## # ℹ 10 more variables: `"Browne"` <dbl>, `"Nader"` <dbl>, `"Harris"` <dbl>,
## #   `"Hagelin"` <dbl>, `"Buchanan"` <dbl>, `"McReynolds"` <dbl>,
## #   `"Phillips"` <dbl>, `"Moorehead"` <dbl>, `"Chote"` <dbl>,
## #   `"McCarthy"` <dbl>

names(fl2000) <- gsub('"', '', names(fl2000))
print(fl2000, n = 2)
## # A tibble: 67 × 17
##   county  technology columns under  over  Bush  Gore Browne Nader Harris Hagelin
##   <chr>   <chr>        <dbl> <dbl> <dbl> <dbl> <dbl>  <dbl> <dbl>  <dbl>   <dbl>
## 1 "\"Ala… "\"Optica…       1   217   105 34124 47365    658  3226      6      42
## 2 "\"Bak… "\"Optica…       1    79    46  5610  2392     17    53      0       3
## # ℹ 65 more rows
## # ℹ 6 more variables: Buchanan <dbl>, McReynolds <dbl>, Phillips <dbl>,
## #   Moorehead <dbl>, Chote <dbl>, McCarthy <dbl>

fl2000$county <- gsub('\"', '', fl2000$county)
fl2000$technology <- gsub('\"', '', fl2000$technology)

print(fl2000, n = 2)
## # A tibble: 67 × 17
##   county  technology columns under  over  Bush  Gore Browne Nader Harris Hagelin
##   <chr>   <chr>        <dbl> <dbl> <dbl> <dbl> <dbl>  <dbl> <dbl>  <dbl>   <dbl>
## 1 Alachua Optical          1   217   105 34124 47365    658  3226      6      42
## 2 Baker   Optical          1    79    46  5610  2392     17    53      0       3
## # ℹ 65 more rows
## # ℹ 6 more variables: Buchanan <dbl>, McReynolds <dbl>, Phillips <dbl>,
## #   Moorehead <dbl>, Chote <dbl>, McCarthy <dbl>

library(rvest)
URL <- "https://en.wikipedia.org/wiki/South_Korea"
Xpath <- '//*[@id="mw-content-text"]/div[1]/table[7]'  # 2024.1.22 시점

tbl_1 <- read_html(URL) |>      # ' |> ' : pipe 연산자. 4장에서 소개됨. 
  html_nodes(xpath=Xpath) |> 
  html_table()

top_company <- tbl_1[[1]] 
names(top_company) <- c("Rank", "Name", "HQ", "Revenue", "Profit", "Assets")

print(top_company, n = 3)
## # A tibble: 15 × 6
##    Rank Name                HQ    Revenue Profit Assets 
##   <dbl> <chr>               <chr> <chr>   <chr>  <chr>  
## 1     1 Samsung Electronics Suwon 173,957 19,316 217,104
## 2     2 Hyundai Motor       Seoul 80,701  4,659  148,092
## 3     3 SK Holdings         Seoul 72,579  659    85.332 
## # ℹ 12 more rows
…
car <- as_tibble(MASS::Cars93) |> 
  select(1:2, MPG.highway, Cylinders, Weight, Origin) |> 
  print(n = 3)
## # A tibble: 93 × 6
##   Manufacturer Model   MPG.highway Cylinders Weight Origin 
##   <fct>        <fct>         <int> <fct>      <int> <fct>  
## 1 Acura        Integra          31 4           2705 non-USA
## 2 Acura        Legend           25 6           3560 non-USA
## 3 Audi         90               26 6           3375 non-USA
## # ℹ 90 more rows

car <- car |> 
  mutate(make = paste(Manufacturer, Model), .before = 1) |> 
  select(!c(Manufacturer, Model)) |> 
  print(n = 3)
## # A tibble: 93 × 5
##   make          MPG.highway Cylinders Weight Origin 
##   <chr>               <int> <fct>      <int> <fct>  
## 1 Acura Integra          31 4           2705 non-USA
## 2 Acura Legend           25 6           3560 non-USA
## 3 Audi 90                26 6           3375 non-USA
## # ℹ 90 more rows
…
